className,NumAttr,NumOps,NumPubOps,Setters,Getters,Dep_Out,Dep_In,EC_Attr,IC_Attr,EC_Par,IC_Par,barycenterScorer,betweennessCentrality,closenessCentrality,eigenvectorCentrality,HITS.hub,HITS.authority,PageRank,In_Design
Data.maze.ai.Floodfill,10,19,6,3,9,6,0,0,2,0,12,0.047619047619047616,0.0,0.6190476190476191,14187.514157327765,3.388892147674336,825.1106420112927,355.9246310721857,Y
Data.maze.ai.LeftWallFollower,1,3,3,0,0,2,0,0,1,0,2,0.5,0.0,1.0,14187.514157327765,8.772459095593954,825.1106420112927,355.9246310721857,Y
Data.maze.ai.RightWallFollower,1,4,4,1,0,3,0,0,1,0,3,0.03225806451612903,0.0,0.41935483870967744,14187.514157327765,7.0759943563021634,825.1106420112927,355.9246310721857,Y
Data.maze.ai.RobotBase,3,8,8,2,4,4,5,3,2,4,4,0.03125,23.33333333333333,0.40625,4008.8567424441544,7.6262087535314524,12.10190084185584,255.73185519347987,Y
Data.maze.ai.RobotController,8,10,10,0,7,6,2,2,4,0,5,0.041666666666666664,16.5,0.5833333333333334,7732.99038779137,5.198469848574061,67.81793868437313,323.1135788883933,Y
Data.maze.ai.RobotStep,4,1,1,0,1,0,10,5,0,10,0,0.0,0.0,0.0,2756.3024493032926,800.8892080220545,3.445292710944591,230.33033416960276,Y
Data.maze.ai.Tremaux,3,11,5,1,7,4,0,0,2,0,10,0.1,0.0,0.7,14187.514157327765,4.397914073222039,825.1106420112927,355.9246310721857,Y
Data.maze.gui.mazeeditor.BoxTemplate,3,6,5,0,0,0,0,0,0,0,0,0.0,0.0,0.0,14187.514157327765,800.8892080220545,825.1106420112927,355.9246310721857,Y
Data.maze.gui.mazeeditor.CornerTemplate.Corner,4,0,0,0,0,0,0,1,0,0,0,0.0,0.0,0.0,6970.583539674441,800.8892080220545,700.6201382796046,296.60385922682144,Y
Data.maze.gui.mazeeditor.CornerTemplate,3,6,6,0,0,0,0,0,1,0,0,1.0,0.0,1.0,14187.514157327765,685.4189187579148,825.1106420112927,355.9246310721857,Y
Data.maze.gui.mazeeditor.CrossTemplate,2,6,6,0,0,0,0,0,0,0,0,0.0,0.0,0.0,14187.514157327765,800.8892080220545,825.1106420112927,355.9246310721857,Y
Data.maze.gui.mazeeditor.EditableMazeView,5,10,5,3,3,11,1,1,4,0,12,0.034482758620689655,45.18333333333334,0.6206896551724138,6493.781861443717,4.57172942387169,28.854783465906003,290.41023356649885,Y
Data.maze.gui.mazeeditor.MazeTemplate,2,11,10,0,4,8,3,4,2,3,16,0.058823529411764705,50.900000000000006,0.7058823529411764,4803.159255175899,5.040902237898706,17.63518551764188,263.0967391294357,Y
Data.maze.gui.mazeeditor.StraightTemplate,3,8,7,0,2,2,0,0,0,0,2,0.5,0.0,1.0,14187.514157327765,11.357317228191384,825.1106420112927,355.9246310721857,Y
Data.maze.gui.mazeeditor.TemplatePeg,4,3,3,0,1,2,8,5,1,10,1,0.5,21.73333333333333,1.0,1641.881385661518,98.41042414258183,8.746758776309509,193.74811121100578,Y
Data.maze.gui.mazeeditor.TemplateWall,2,0,0,0,0,1,1,4,1,0,0,0.3333333333333333,0.0,0.6666666666666666,3562.794738148602,55.2555458181011,368.75355103376023,317.09058398070755,Y
Data.maze.gui.mazeeditor.ZigZagTemplate,3,6,6,0,0,0,0,0,0,0,0,0.0,0.0,0.0,14187.514157327765,800.8892080220545,825.1106420112927,355.9246310721857,Y
Data.maze.gui.MazeView,22,38,17,11,12,14,4,4,9,2,39,0.043478260869565216,164.33333333333334,0.782608695652174,4247.539668518972,2.902333459177237,41.09957835435526,281.66175526936587,Y
Data.maze.gui.PrimaryFrame,9,11,4,1,3,10,1,1,8,1,5,0.007575757575757576,51.0,0.40151515151515155,10547.446411211631,7.584812312329504,68.8502877409865,333.6793416301741,Y
Data.maze.model.CellSizeModel,5,19,19,4,11,2,6,3,0,15,2,0.5,15.233333333333333,1.0,5228.526609453251,12.542240705186774,6.362492034719409,288.9009872117136,Y
Data.maze.model.Direction,5,6,5,0,5,0,13,4,0,32,0,0.0,0.0,0.0,1685.385305943331,800.8892080220545,2.4655991138327966,208.49325885066253,Y
Data.maze.model.MazeCell,4,15,14,0,7,5,12,8,0,43,5,0.2,68.7,1.0,1756.6440070444855,4.835760201676938,2.748775958135199,202.8511551927061,Y
Data.maze.model.MazeModel,9,24,23,3,10,10,8,7,1,9,15,0.1,86.00000000000001,0.8,2696.983038976774,4.234983803251607,3.650485680603955,212.02548797664454,Y
Data.maze.model.PegLocation,4,0,0,0,0,0,0,0,0,0,0,0.0,0.0,0.0,14187.514157327765,800.8892080220545,825.1106420112927,355.9246310721857,Y
Data.maze.model.RobotModel,1,8,8,0,7,4,6,2,1,5,4,0.045454545454545456,66.5,0.5454545454545455,4162.917332234368,6.2466892060699415,5.392477395823912,277.40991305730756,Y
Data.maze.model.RobotModelMaster,4,15,15,2,11,8,2,2,4,2,15,0.0625,48.74999999999999,0.6875,3963.913206242672,4.002744122926125,16.96248592180884,260.267049588604,Y
Data.maze.Main,1,4,4,0,2,3,0,0,1,0,5,0.00546448087431694,0.0,0.29508196721311475,14187.514157327765,11.087767772537864,825.1106420112927,355.9246310721857,Y
Data.maze.ai.ModifiedFloodfill,11,25,6,4,12,6,0,0,2,0,20,0.045454545454545456,0.0,0.6363636363636364,14187.514157327765,3.313167663695227,825.1106420112927,355.9246310721857,N
Data.maze.ai.PythonScriptRobot,1,4,4,0,0,3,0,0,1,0,3,0.01818181818181818,0.0,0.36363636363636365,14187.514157327765,8.413403671081957,825.1106420112927,355.9246310721857,N
Data.maze.gui.mazeeditor.ConjoinedMazeTemplate,2,3,3,0,2,3,0,0,2,0,5,0.1111111111111111,0.0,0.6666666666666666,14187.514157327765,13.929526148956187,825.1106420112927,355.9246310721857,N
Data.maze.gui.mazeeditor.GappedTemplate,6,12,9,0,2,5,0,0,3,0,10,0.05263157894736842,0.0,0.6315789473684211,14187.514157327765,8.962433794215201,825.1106420112927,355.9246310721857,N
Data.maze.gui.mazeeditor.JungleTemplate,0,2,1,0,0,0,0,0,0,0,0,0.0,0.0,0.0,14187.514157327765,800.8892080220545,825.1106420112927,355.9246310721857,N
Data.maze.gui.mazeeditor.MazeEditorPage,10,12,8,1,2,11,1,1,6,0,6,0.015151515151515152,26.75,0.4696969696969697,12286.338135941158,7.511630158143522,48.37367872251569,347.6832503237704,N
Data.maze.gui.mazeeditor.NewMazeDialog.RadioButtonAction,1,2,2,0,0,2,0,0,1,0,2,0.5,0.0,1.0,14187.514157327765,107.62562263031617,825.1106420112927,355.9246310721857,N
Data.maze.gui.mazeeditor.NewMazeDialog,12,5,4,1,2,9,0,0,6,0,4,0.125,0.0,1.0,14187.514157327765,7.832253994030675,825.1106420112927,355.9246310721857,N
Data.maze.gui.mazeeditor.MazeSizeSpinnerModel,0,2,2,1,0,1,0,0,0,0,1,1.0,0.0,1.0,14187.514157327765,102.43941539726075,825.1106420112927,355.9246310721857,N
Data.maze.gui.mazeeditor.RungTemplate,6,12,8,0,2,5,0,0,3,0,10,0.05263157894736842,0.0,0.6315789473684211,14187.514157327765,8.962433794215201,825.1106420112927,355.9246310721857,N
Data.maze.gui.mazeeditor.StaggeredTemplate,3,7,5,0,0,1,0,0,0,0,2,0.2,0.0,0.6,14187.514157327765,55.2555458181011,825.1106420112927,355.9246310721857,N
Data.maze.gui.mazeeditor.WaveTemplate,3,7,5,0,0,1,0,0,0,0,2,0.2,0.0,0.6,14187.514157327765,55.2555458181011,825.1106420112927,355.9246310721857,N
Data.maze.gui.HelpInfo,3,6,3,0,0,6,0,0,3,0,3,0.2,0.0,1.0,14187.514157327765,238.85219914481965,825.1106420112927,355.9246310721857,N
Data.maze.gui.MazeList,3,7,6,0,2,7,3,3,3,0,7,0.022222222222222223,45.33333333333333,0.4888888888888889,4903.440696388305,115.45306382814724,27.46408853729719,272.29846024574994,N
Data.maze.gui.MazePainter,15,40,39,15,13,7,4,1,2,5,51,0.16666666666666666,37.33333333333333,1.0,4500.577218882903,7.5858678578688625,8.545674757052005,265.99391205927265,N
Data.maze.gui.MazePainterClassic,0,2,2,1,0,2,0,0,0,0,2,0.5,0.0,1.0,14187.514157327765,26.909505654855522,825.1106420112927,355.9246310721857,N
Data.maze.gui.MazePainterDefault,7,15,15,8,6,5,0,0,2,0,15,0.2,0.0,1.0,14187.514157327765,10.757964520464581,825.1106420112927,355.9246310721857,N
Data.maze.gui.MazeViewerPage,21,4,1,1,0,7,1,1,7,0,0,0.015625,92.0,0.484375,5239.594403336853,32.23156800957307,44.455684878700396,268.8854235855908,N
Data.maze.gui.PrimaryFrame.LookAndFeelListener,0,1,1,0,0,1,0,0,0,0,1,1.0,0.0,1.0,14187.514157327765,163.04282361689843,825.1106420112927,355.9246310721857,N
Data.maze.gui.RobotAnimator.AnimationStates,3,0,0,0,0,0,0,1,0,2,0,0.0,0.0,0.0,9227.32005566503,800.8892080220545,236.5338300788975,338.9377728776074,N
Data.maze.gui.RobotAnimator,7,10,8,4,3,5,1,1,5,0,5,0.019230769230769232,52.0,0.5,5465.081090037144,48.94403964083832,163.70311665895628,284.0697211598427,N
Data.maze.gui.ScriptEditor,10,20,12,2,7,9,2,1,6,2,13,0.02702702702702703,55.0,0.5135135135135135,7979.514440654364,5.364009940050146,30.293951594428307,316.982717252664,N
Data.maze.gui.ScriptEditorPage,2,11,8,0,3,5,1,1,2,0,6,0.017857142857142856,27.666666666666668,0.375,8483.277636865527,10.35522074329498,45.82806646794199,316.7424205322681,N
Data.maze.gui.ScriptInfoPanel,7,8,7,4,3,4,0,0,3,0,5,0.25,0.0,1.0,14187.514157327765,12.350624135720743,825.1106420112927,355.9246310721857,N
Data.maze.gui.StatTracker,11,14,11,0,8,4,1,1,1,0,5,0.03571428571428571,2.0,0.5357142857142857,12359.475429808741,14.033931927202854,89.24336983266267,346.03783576462496,N
Data.maze.gui.StatViewPage,7,3,1,0,1,7,0,0,7,0,1,0.017241379310344827,0.0,0.5344827586206897,14187.514157327765,14.77019293654618,825.1106420112927,355.9246310721857,N
Data.maze.model.MazeCellPeg,2,8,8,0,4,2,0,0,0,0,3,0.1,0.0,0.6,14187.514157327765,15.778668102958711,825.1106420112927,355.9246310721857,N
Data.maze.model.MazeInfo,6,18,17,2,7,5,1,0,2,3,11,0.06666666666666667,12.916666666666668,0.6666666666666666,10922.822768581706,5.263384871303812,68.37873098177162,338.5936522778174,N
Data.maze.model.MazeInfoModel,3,8,8,0,1,4,1,1,2,1,7,0.04,9.583333333333334,0.48,12286.338135941158,11.004965458073928,48.37367872251569,347.6832503237704,N
Data.maze.model.RobotModelMaster.RobotCrashedException,0,1,1,0,0,2,0,0,0,0,2,0.1,0.0,0.6,14187.514157327765,8.72326223387669,825.1106420112927,355.9246310721857,N
Data.maze.model.RobotPathModel,5,8,8,0,6,2,3,2,1,3,7,0.09090909090909091,2.25,0.5454545454545455,5616.907000272165,18.227071009513125,9.64187223582994,300.8354354821415,N
Data.maze.util.ListenerSubject,4,6,5,0,1,1,0,0,2,0,4,0.5,2.0,1.0,9348.217790673974,583.7963829736941,685.0405491813435,323.5678464292597,N
