className,NumAttr,NumOps,NumPubOps,Setters,Getters,Dep_Out,Dep_In,EC_Attr,IC_Attr,EC_Par,IC_Par,barycenterScorer,betweennessCentrality,closenessCentrality,eigenvectorCentrality,HITS.hub,HITS.authority,PageRank,In_Design
.org.neuroph.core.input.InputFunction,3,5,5,0,3,3,5,1,2,7,5,0.045454545454545456,840.0,0.5454545454545455,61910.536783114185,153.3096934879563,133.10447136802767,184.21256444449065,Y
.org.neuroph.core.input.SummingFunction,0,2,2,0,1,2,2,1,0,3,2,0.125,576.0,1.0,74948.07032970071,159.31335946409547,75.23147117658422,172.94903567090515,Y
.org.neuroph.core.input.WeightsFunction,0,2,2,0,1,3,2,1,0,3,3,0.5,144.0,1.0,74948.07032970071,329.2371985193375,75.23147117658422,172.94903567090515,Y
.org.neuroph.core.learning.IterativeLearning,5,8,8,2,2,3,0,0,0,0,5,0.002770083102493075,944.3333333333333,0.2077562326869806,176930.2297907134,10.864653808061782,34.2502010747471,190.68557865578717,Y
.org.neuroph.core.learning.LearningRule,4,11,10,2,3,2,1,1,2,4,6,0.0041841004184100415,1138.0,0.3138075313807531,122047.53350705198,6.027984707297267,10.010749721035463,193.66361361949836,Y
.org.neuroph.core.learning.SupervisedLearning,3,9,5,1,2,5,0,0,0,0,10,0.0029154518950437317,437.33333333333337,0.21865889212827988,169111.53992050592,10.659868825452653,58.34852574637214,185.62149732243662,Y
.org.neuroph.core.learning.SupervisedTrainingElement,2,5,5,1,1,3,2,0,1,2,6,0.0,0.0,0.0,14227.061025999174,457.1467045032436,36.11075889782979,135.26850087627508,Y
.org.neuroph.core.learning.TrainingElement,3,8,8,2,2,3,3,1,2,4,6,1.0,71.66666666666667,1.0,17365.666798738675,149.17749139907826,23.14613162917661,136.5089357612412,Y
.org.neuroph.core.learning.TrainingSet,4,19,19,2,3,5,23,8,2,37,13,0.3333333333333333,140.33333333333334,0.6666666666666666,10633.219499996045,108.30836687436667,1.9352658455786516,59.921309812304116,Y
.org.neuroph.core.learning.UnsupervisedLearning,1,5,3,0,0,3,0,0,0,0,3,0.0029154518950437317,440.5,0.21865889212827988,169111.53992050592,10.051937967927325,58.34852574637214,185.62149732243662,Y
.org.neuroph.core.transfer.TransferFunction,1,3,3,0,2,1,6,1,0,8,1,0.1111111111111111,639.0,1.0,58876.74438163224,143.90086113554912,56.72018175311001,177.61929331735467,Y
.org.neuroph.core.Connection,3,8,8,0,4,2,3,5,2,5,8,0.0030864197530864196,426.0,0.23148148148148145,16556.992385192712,17.415184102690436,115.0745306091328,126.87069761922622,Y
.org.neuroph.core.Layer,3,17,17,2,5,5,5,2,2,26,11,0.004149377593360996,1258.3333333333333,0.3112033195020747,30640.198117906388,8.308642487434025,7.960425265613796,134.6484659055232,Y
.org.neuroph.core.NeuralNetwork,8,40,40,6,11,12,33,10,6,46,33,0.0049504950495049506,4036.166666666667,0.3712871287128713,11294.954477923493,1.6698318983134877,2.502779248399106,72.20668178242816,Y
.org.neuroph.core.Neuron,9,27,26,6,12,7,21,7,4,40,15,0.003937007874015748,3088.666666666667,0.2952755905511811,9666.261496206163,30.21964298798412,3.2968812901028275,56.860504886140774,Y
.org.neuroph.core.Weight,3,10,10,2,2,1,2,1,0,3,1,0.0,0.0,0.0,37394.415284922936,457.1467045032436,41.840301291856655,169.52006104195425,Y
.org.neuroph.nnet.learning.BackPropagation,1,5,2,0,0,3,0,0,0,0,3,0.003205128205128205,142.0,0.24038461538461536,102334.82281519794,18.720631718361762,394.56854273925296,163.95597976910466,Y
.org.neuroph.nnet.learning.CompetitiveLearning,1,4,3,0,0,2,0,0,0,0,2,0.16666666666666666,0.0,0.5,182446.20036776635,11.567121447374506,54.48556849092812,188.4283609464227,Y
.org.neuroph.nnet.learning.LMS,1,5,2,0,0,3,0,0,0,0,4,0.0035211267605633804,438.0,0.2640845070422535,166498.62678166112,17.465281321241736,57.38187307000934,185.29343858820636,Y
.org.neuroph.nnet.learning.MomentumBackpropagation,2,5,4,1,1,2,0,0,0,0,2,0.003125,0.0,0.234375,109751.92222804592,19.360849816718645,92.3213176196538,177.06601389413314,Y
.org.neuroph.nnet.learning.OjaLearning,1,3,2,0,0,2,0,0,0,0,2,0.003105590062111801,0.0,0.23291925465838512,204945.77887307454,19.360849816718645,36.76606129759348,191.7695109838275,Y
.org.neuroph.nnet.learning.SigmoidDeltaRule,1,4,2,0,0,2,0,0,0,0,3,0.002638522427440633,137.0,0.19788918205804748,181627.16935854885,384.500198724095,87.27036644872982,188.41142978257628,Y
.org.neuroph.nnet.learning.SupervisedHebbianLearning,1,5,2,0,0,4,0,0,0,0,4,0.0031545741324921135,1.0,0.23659305993690852,181627.16935854885,17.804185609728794,87.27036644872982,188.41142978257628,Y
.org.neuroph.nnet.learning.UnsupervisedHebbianLearning,1,5,3,0,0,3,0,0,0,0,3,0.0034965034965034965,371.0,0.26223776223776224,182446.20036776635,6.508006439222803,54.48556849092812,188.4283609464227,Y
.org.neuroph.contrib.imgrec.ColorMode,2,0,0,0,0,0,3,1,0,7,0,0.0,0.0,0.0,0.0,0.0,0.0,0.0,N
.org.neuroph.contrib.imgrec.FractionRgbData,6,12,11,0,7,3,1,1,0,0,4,0.0,0.0,0.0,256009.5223307995,457.1467045032436,473.9883994303566,198.5036252014172,N
.org.neuroph.contrib.imgrec.ImageRecognitionHelper,0,5,3,0,0,9,0,0,0,0,17,0.0036363636363636364,0.0,0.27636363636363637,256009.5223307995,6.595908294400144,473.9883994303566,198.5036252014172,N
.org.neuroph.contrib.imgrec.ImageRecognitionPlugin,3,17,17,6,3,9,0,0,2,0,28,0.0,0.0,0.0,146717.0760679587,457.1467045032436,72.23838352671355,185.8069199832475,N
.org.neuroph.contrib.imgrec.ImageRecognitionSample,0,1,1,0,0,1,0,0,0,0,1,0.0,0.0,0.0,256009.5223307995,457.1467045032436,473.9883994303566,198.5036252014172,N
.org.neuroph.contrib.imgrec.ImageSampler,0,7,6,0,0,4,0,0,0,0,22,0.0,0.0,0.0,256009.5223307995,457.1467045032436,473.9883994303566,198.5036252014172,N
.org.neuroph.contrib.IACFunction,5,2,2,0,2,0,0,0,0,0,0,0.0,0.0,0.0,169014.1020300069,457.1467045032436,308.2202758751614,193.69323567663272,N
.org.neuroph.contrib.IACNetwork,1,2,1,0,0,0,0,0,0,0,0,0.0,0.0,0.0,122047.53350705198,457.1467045032436,10.010749721035463,193.66361361949836,N
.org.neuroph.contrib.IACNeuron,2,3,3,1,0,0,0,0,0,0,0,0.0,0.0,0.0,61910.536783114185,457.1467045032436,133.10447136802767,184.21256444449065,N
.org.neuroph.contrib.RecommenderNetwork,7,11,2,0,0,1,0,0,0,0,5,0.0031847133757961785,0.0,0.23885350318471338,122047.53350705198,44.105158625228526,10.010749721035463,193.66361361949836,N
.org.neuroph.core.input.And,1,1,1,0,1,1,0,0,0,0,1,0.0,0.0,0.0,175964.49591314286,457.1467045032436,319.01380923306067,192.96665018222245,N
.org.neuroph.core.input.Diference,1,1,1,0,1,2,0,0,0,0,2,0.0,0.0,0.0,90797.29256773459,457.1467045032436,383.7750093811587,178.0659632648072,N
.org.neuroph.core.input.Intensity,1,1,1,0,1,1,0,0,0,0,1,0.0,0.0,0.0,175964.49591314286,457.1467045032436,319.01380923306067,192.96665018222245,N
.org.neuroph.core.input.Max,1,1,1,0,1,1,0,0,0,0,1,0.0,0.0,0.0,175964.49591314286,457.1467045032436,319.01380923306067,192.96665018222245,N
.org.neuroph.core.input.Min,1,1,1,0,1,1,0,0,0,0,1,0.0,0.0,0.0,175964.49591314286,457.1467045032436,319.01380923306067,192.96665018222245,N
.org.neuroph.core.input.Or,1,1,1,0,1,1,0,0,0,0,1,0.0,0.0,0.0,175964.49591314286,457.1467045032436,319.01380923306067,192.96665018222245,N
.org.neuroph.core.input.Product,1,1,1,0,1,1,0,0,0,0,1,0.0,0.0,0.0,175964.49591314286,457.1467045032436,319.01380923306067,192.96665018222245,N
.org.neuroph.core.input.Sum,1,1,1,0,1,1,0,0,0,0,1,0.0,0.0,0.0,175964.49591314286,457.1467045032436,319.01380923306067,192.96665018222245,N
.org.neuroph.core.input.SumSqr,1,1,1,0,1,1,0,0,0,0,1,0.0,0.0,0.0,175964.49591314286,457.1467045032436,319.01380923306067,192.96665018222245,N
.org.neuroph.core.input.WeightedInput,1,1,1,0,1,2,0,0,0,0,2,0.0,0.0,0.0,90797.29256773459,457.1467045032436,383.7750093811587,178.0659632648072,N
.org.neuroph.core.transfer.Gaussian,2,6,6,1,3,1,0,0,0,0,1,0.0,0.0,0.0,169014.1020300069,457.1467045032436,308.2202758751614,193.69323567663272,N
.org.neuroph.core.transfer.Linear,2,7,7,1,3,1,0,0,0,0,1,0.0,0.0,0.0,169014.1020300069,457.1467045032436,308.2202758751614,193.69323567663272,N
.org.neuroph.core.transfer.Ramp,6,12,12,4,5,1,0,0,0,0,1,0.0,0.0,0.0,169014.1020300069,457.1467045032436,308.2202758751614,193.69323567663272,N
.org.neuroph.core.transfer.Sgn,1,2,2,0,2,1,0,0,0,0,1,0.0,0.0,0.0,169014.1020300069,457.1467045032436,308.2202758751614,193.69323567663272,N
.org.neuroph.core.transfer.Sigmoid,2,7,7,1,3,2,0,0,0,0,2,0.0,0.0,0.0,169014.1020300069,457.1467045032436,308.2202758751614,193.69323567663272,N
.org.neuroph.core.transfer.Step,3,8,8,2,4,1,0,0,0,0,2,0.0,0.0,0.0,169014.1020300069,457.1467045032436,308.2202758751614,193.69323567663272,N
.org.neuroph.core.transfer.Tanh,2,7,7,1,3,1,0,0,0,0,1,0.0,0.0,0.0,169014.1020300069,457.1467045032436,308.2202758751614,193.69323567663272,N
.org.neuroph.core.transfer.Trapezoid,5,12,12,4,5,1,0,0,0,0,1,0.0,0.0,0.0,169014.1020300069,457.1467045032436,308.2202758751614,193.69323567663272,N
.org.neuroph.easyneurons.dialog.AdalineWizard,9,7,5,0,0,8,0,0,5,0,5,0.0022675736961451248,0.0,0.2290249433106576,256009.5223307995,44.80421047510447,473.9883994303566,198.5036252014172,N
.org.neuroph.easyneurons.dialog.BamWizard,11,6,5,0,0,7,0,0,5,0,4,0.0022675736961451248,0.0,0.2290249433106576,256009.5223307995,44.80421047510447,473.9883994303566,198.5036252014172,N
.org.neuroph.easyneurons.dialog.ComboItem,2,3,3,0,1,2,0,0,2,0,4,0.0,0.0,0.0,256009.5223307995,457.1467045032436,473.9883994303566,198.5036252014172,N
.org.neuroph.easyneurons.dialog.CompetitiveNetworkWizard,11,6,5,0,0,7,0,0,5,0,4,0.0022675736961451248,0.0,0.2290249433106576,256009.5223307995,44.80421047510447,473.9883994303566,198.5036252014172,N
.org.neuroph.easyneurons.dialog.HebbianTrainingDialog,14,7,5,0,0,9,0,0,6,0,5,0.002840909090909091,0.0,0.21875,256009.5223307995,129.9614847488212,473.9883994303566,198.5036252014172,N
.org.neuroph.easyneurons.dialog.HopfieldWizard,9,7,5,0,0,8,0,0,5,0,5,0.0022675736961451248,0.0,0.2290249433106576,256009.5223307995,44.80421047510447,473.9883994303566,198.5036252014172,N
.org.neuroph.easyneurons.dialog.InstarWizard,8,6,5,0,0,7,0,0,5,0,4,0.0022675736961451248,0.0,0.2290249433106576,256009.5223307995,44.80421047510447,473.9883994303566,198.5036252014172,N
.org.neuroph.easyneurons.dialog.KohonenWizard,11,6,5,0,0,7,0,0,5,0,4,0.0022675736961451248,0.0,0.2290249433106576,256009.5223307995,44.80421047510447,473.9883994303566,198.5036252014172,N
.org.neuroph.easyneurons.dialog.MaxnetWizard,9,6,5,0,0,7,0,0,5,0,4,0.0022675736961451248,0.0,0.2290249433106576,256009.5223307995,44.80421047510447,473.9883994303566,198.5036252014172,N
.org.neuroph.easyneurons.dialog.MLPerceptronWizard,13,8,5,0,0,11,0,0,8,0,5,0.0022675736961451248,0.0,0.2290249433106576,256009.5223307995,44.80421047510447,473.9883994303566,198.5036252014172,N
.org.neuroph.easyneurons.dialog.NeuronPropertiesDialog,20,5,4,0,0,9,0,0,6,0,4,0.0,0.0,0.0,256009.5223307995,457.1467045032436,473.9883994303566,198.5036252014172,N
.org.neuroph.easyneurons.dialog.NewNFRStudentDemo,16,2,1,0,0,5,0,0,5,0,0,0.0,0.0,0.0,256009.5223307995,457.1467045032436,473.9883994303566,198.5036252014172,N
.org.neuroph.easyneurons.dialog.OutstarWizard,9,6,5,0,0,7,0,0,5,0,4,0.0022675736961451248,0.0,0.2290249433106576,256009.5223307995,44.80421047510447,473.9883994303566,198.5036252014172,N
.org.neuroph.easyneurons.dialog.PerceptronWizard,13,9,5,0,0,9,0,0,6,0,7,0.0022675736961451248,0.0,0.2290249433106576,256009.5223307995,44.80421047510447,473.9883994303566,198.5036252014172,N
.org.neuroph.easyneurons.dialog.RbfWizard,13,6,5,0,0,7,0,0,5,0,4,0.0022675736961451248,0.0,0.2290249433106576,256009.5223307995,44.80421047510447,473.9883994303566,198.5036252014172,N
.org.neuroph.easyneurons.dialog.RenameNodeDialog,7,7,5,0,0,8,0,0,5,0,6,0.0022675736961451248,0.0,0.2290249433106576,256009.5223307995,44.80421047510447,473.9883994303566,198.5036252014172,N
.org.neuroph.easyneurons.dialog.SetNetworkInputDialog,9,7,5,0,0,8,0,0,5,0,5,0.002840909090909091,0.0,0.21875,256009.5223307995,129.9614847488212,473.9883994303566,198.5036252014172,N
.org.neuroph.easyneurons.dialog.SupervisedHebbianWizard,13,7,5,0,0,8,0,0,6,0,4,0.0022675736961451248,0.0,0.2290249433106576,256009.5223307995,44.80421047510447,473.9883994303566,198.5036252014172,N
.org.neuroph.easyneurons.dialog.SupervisedTrainingDialog,17,7,5,0,0,10,0,0,7,0,6,0.002277904328018223,0.0,0.23006833712984054,256009.5223307995,35.9370483077824,473.9883994303566,198.5036252014172,N
.org.neuroph.easyneurons.dialog.SupervisedTrainingMonitor,12,8,7,0,1,12,0,0,6,0,7,0.002840909090909091,0.0,0.21875,256009.5223307995,129.9614847488212,473.9883994303566,198.5036252014172,N
.org.neuroph.easyneurons.dialog.TrainingDataFileDialog,14,8,7,0,0,10,0,0,9,0,3,0.0018450184501845018,0.0,0.19003690036900367,256009.5223307995,384.500198724095,473.9883994303566,198.5036252014172,N
.org.neuroph.easyneurons.dialog.TrainingSetWizard,15,6,5,0,0,8,0,0,6,0,4,0.0022675736961451248,0.0,0.2290249433106576,256009.5223307995,44.80421047510447,473.9883994303566,198.5036252014172,N
.org.neuroph.easyneurons.dialog.UnsupervisedHebbianWizard,12,7,5,0,0,8,0,0,6,0,4,0.0022675736961451248,0.0,0.2290249433106576,256009.5223307995,44.80421047510447,473.9883994303566,198.5036252014172,N
.org.neuroph.easyneurons.err.orgraph.ButtonsPanel,11,10,2,0,0,5,1,1,4,0,8,0.0,0.0,0.0,0.0,0.0,0.0,0.0,N
.org.neuroph.easyneurons.err.orgraph.GraphComponent,25,42,26,6,5,13,3,3,9,3,13,0.0,0.0,0.0,0.0,0.0,0.0,0.0,N
.org.neuroph.easyneurons.err.orgraph.GraphFrame,1,3,2,0,0,3,1,0,1,1,2,0.0,0.0,0.0,0.0,0.0,0.0,0.0,N
.org.neuroph.easyneurons.err.orgraph.GraphPanel,3,3,2,0,1,3,1,1,3,0,1,0.0,0.0,0.0,0.0,0.0,0.0,0.0,N
.org.neuroph.easyneurons.err.orgraph.GraphScope,6,25,22,7,8,2,2,3,0,2,6,0.0,0.0,0.0,0.0,0.0,0.0,0.0,N
.org.neuroph.easyneurons.err.orgraph.GraphView,22,50,49,23,25,2,2,2,2,2,19,0.0,0.0,0.0,0.0,0.0,0.0,0.0,N
.org.neuroph.easyneurons.err.orgraph.JDGraphProperties,55,13,3,0,0,11,0,0,9,0,12,0.0,0.0,0.0,0.0,0.0,0.0,0.0,N
.org.neuroph.easyneurons.file.FileFilterAdapter,0,3,3,0,2,2,0,0,0,0,3,0.25,0.0,1.0,256009.5223307995,250.72267931494986,473.9883994303566,198.5036252014172,N
.org.neuroph.easyneurons.file.FileIO,0,4,4,0,0,3,0,0,0,0,10,0.0036363636363636364,0.0,0.27636363636363637,256009.5223307995,6.595908294400144,473.9883994303566,198.5036252014172,N
.org.neuroph.easyneurons.file.FileObserver,0,1,1,0,0,1,1,1,0,0,3,0.0,0.0,0.0,56977.51914459617,457.1467045032436,32.761038348606704,173.63657965882297,N
.org.neuroph.easyneurons.file.FileUtils,4,4,4,0,4,2,0,0,1,0,6,0.0,0.0,0.0,256009.5223307995,457.1467045032436,473.9883994303566,198.5036252014172,N
.org.neuroph.easyneurons.file.NeuralNetworkXmlFile,0,3,2,0,1,4,0,0,0,0,5,0.0035971223021582736,73.0,0.2733812949640288,167032.93525535145,14.848980287024453,383.7750093811587,180.45784109219747,N
.org.neuroph.easyneurons.file.SwingXmlConverter,0,3,3,0,0,6,0,0,0,0,7,0.0,0.0,0.0,256009.5223307995,457.1467045032436,473.9883994303566,198.5036252014172,N
.org.neuroph.easyneurons.file.TrainingSetXmlFile,0,3,2,0,1,3,0,0,0,0,5,0.16666666666666666,3.0,0.5,167032.93525535145,11.567121447374506,383.7750093811587,180.45784109219747,N
.org.neuroph.easyneurons.file.WindowObserver,2,2,2,0,0,2,0,0,2,0,2,0.002320185614849188,0.0,0.23433874709976796,256009.5223307995,10.646146612764559,473.9883994303566,198.5036252014172,N
.org.neuroph.easyneurons.graph.ConnectionEdge,1,2,2,0,1,2,0,0,1,0,3,0.0025,0.0,0.18999999999999997,256009.5223307995,277.4233745451479,473.9883994303566,198.5036252014172,N
.org.neuroph.easyneurons.graph.NeuronVertex,1,2,2,0,1,1,2,0,1,3,2,0.0030303030303030303,0.0,0.23030303030303031,167032.93525535145,19.360849816718645,92.3213176196538,180.45784109219747,N
.org.neuroph.easyneurons.graph.NNGraph,0,1,1,0,1,2,0,0,0,0,2,0.0030211480362537764,0.0,0.2326283987915408,256009.5223307995,18.720631718361762,473.9883994303566,198.5036252014172,N
.org.neuroph.easyneurons.imgrec.ImageRecognitionFrame,63,14,10,0,0,20,0,0,20,0,1,0.0027397260273972603,0.0,0.27671232876712326,256009.5223307995,5.8227217033733245,473.9883994303566,198.5036252014172,N
.org.neuroph.easyneurons.imgrec.ImagesIterator,2,5,5,0,2,5,0,0,2,0,3,0.0,0.0,0.0,256009.5223307995,457.1467045032436,473.9883994303566,198.5036252014172,N
.org.neuroph.easyneurons.imgrec.ImagesLoader,0,2,2,0,1,5,0,0,0,0,6,0.0,0.0,0.0,256009.5223307995,457.1467045032436,473.9883994303566,198.5036252014172,N
.org.neuroph.easyneurons.samples.BasicNeuronPanel,17,4,2,0,0,6,0,0,5,0,1,0.0030303030303030303,0.0,0.23030303030303031,256009.5223307995,19.360849816718645,473.9883994303566,198.5036252014172,N
.org.neuroph.easyneurons.samples.BasicNeuronSample,1,2,1,0,0,1,0,0,1,0,0,0.0,0.0,0.0,256009.5223307995,457.1467045032436,473.9883994303566,198.5036252014172,N
.org.neuroph.easyneurons.samples.KohonenSample,25,15,9,0,1,14,0,0,10,0,6,0.002857142857142857,0.0,0.21999999999999997,256009.5223307995,27.503944573838815,473.9883994303566,198.5036252014172,N
.org.neuroph.easyneurons.samples.NFRSample,19,6,1,0,0,9,0,0,6,0,5,0.002840909090909091,0.0,0.21875,256009.5223307995,129.9614847488212,473.9883994303566,198.5036252014172,N
.org.neuroph.easyneurons.view.JLayer,1,6,4,1,1,1,0,0,0,0,1,0.0,0.0,0.0,256009.5223307995,457.1467045032436,473.9883994303566,198.5036252014172,N
.org.neuroph.easyneurons.view.JNeuralNetwork,3,7,5,2,0,3,1,1,2,0,2,0.0035087719298245615,88.0,0.2807017543859649,123623.12106068901,14.380133662454423,54.74985606479349,189.09996261884922,N
.org.neuroph.easyneurons.view.JNeuron,4,5,2,0,0,5,0,0,3,0,3,0.0030303030303030303,0.0,0.23030303030303031,256009.5223307995,19.360849816718645,473.9883994303566,198.5036252014172,N
.org.neuroph.easyneurons.view.KohonenLayout,0,1,1,0,1,0,0,0,0,0,0,0.0,0.0,0.0,146552.52182035914,457.1467045032436,372.98147602308154,184.88416002039156,N
.org.neuroph.easyneurons.view.NetworkLayout,2,1,1,0,1,0,1,1,0,0,0,0.3333333333333333,69.0,1.0,121727.37133526638,285.7849339886274,74.27006194042536,179.64570325662294,N
.org.neuroph.easyneurons.view.RowLayersLayout,0,1,1,0,1,0,0,0,0,0,0,0.0,0.0,0.0,146552.52182035914,457.1467045032436,372.98147602308154,184.88416002039156,N
.org.neuroph.easyneurons.view.SquareLayersLayout,0,1,1,0,1,0,0,0,0,0,0,0.0,0.0,0.0,146552.52182035914,457.1467045032436,372.98147602308154,184.88416002039156,N
.org.neuroph.easyneurons.AboutBox,2,3,2,0,0,2,0,0,1,0,1,0.0,0.0,0.0,256009.5223307995,457.1467045032436,473.9883994303566,198.5036252014172,N
.org.neuroph.easyneurons.EasyNeuronsApplication,0,4,2,0,1,2,0,0,0,0,2,0.0,0.0,0.0,256009.5223307995,457.1467045032436,473.9883994303566,198.5036252014172,N
.org.neuroph.easyneurons.EasyNeuronsApplicationView,69,59,53,0,2,31,19,19,23,20,20,0.0029411764705882353,1796.0,0.29411764705882354,13013.350180070252,5.746434111408587,8.100304699429127,46.202366462355975,N
.org.neuroph.easyneurons.EasyNeuronsProject,3,14,14,3,4,6,1,1,3,1,11,0.0036363636363636364,0.0,0.27636363636363637,56977.51914459617,6.595908294400144,32.761038348606704,173.63657965882297,N
.org.neuroph.easyneurons.NeuralGraphRenderer,58,9,7,0,2,33,1,1,25,0,6,0.0034965034965034965,176.0,0.2937062937062937,123623.12106068901,11.22707268280283,54.74985606479349,189.09996261884922,N
.org.neuroph.easyneurons.NeuralNetworkViewFrame,21,19,15,2,3,16,2,2,12,1,10,0.002976190476190476,396.0,0.2976190476190476,50938.49015021336,10.10706333834387,21.80494527744176,159.66982130931964,N
.org.neuroph.easyneurons.TrainingController,2,16,16,6,3,5,7,7,2,8,19,0.0036363636363636364,418.0,0.27636363636363637,34606.28265468093,6.595908294400144,29.61158180746695,96.84386131817786,N
.org.neuroph.easyneurons.TrainingSetEditFrame,21,11,9,2,0,15,1,1,12,1,6,0.002277904328018223,102.0,0.2323462414578588,123952.88042707345,9.103084961491277,394.56854273925296,165.41968766784768,N
.org.neuroph.easyneurons.TrainingSetTableModel,4,15,15,1,8,5,1,1,2,0,6,0.0,0.0,0.0,147686.22709916005,457.1467045032436,49.8836808048595,183.7996529642752,N
.org.neuroph.easyneurons.TreeFolder,1,2,2,0,1,1,0,0,0,0,1,0.0,0.0,0.0,256009.5223307995,457.1467045032436,473.9883994303566,198.5036252014172,N
.org.neuroph.nnet.comp.CompetitiveLayer,3,5,5,1,2,2,0,0,1,0,2,0.0021413276231263384,24.333333333333336,0.16059957173447537,64531.52797107994,373.982087747164,45.952300663282614,180.74005771062207,N
.org.neuroph.nnet.comp.CompetitiveNeuron,4,7,7,1,2,4,1,1,1,1,4,0.0025252525252525255,148.0,0.1893939393939394,26578.87661147442,277.4233745451479,335.23768303119334,138.31344341022992,N
.org.neuroph.nnet.comp.DelayedConnection,2,4,4,1,2,1,0,0,0,0,1,0.0,0.0,0.0,39440.26050386902,457.1467045032436,87.06602288390545,179.753928527798,N
.org.neuroph.nnet.comp.DelayedNeuron,2,3,3,0,1,3,0,0,1,0,2,0.002136752136752137,43.66666666666667,0.16025641025641024,61910.536783114185,373.982087747164,133.10447136802767,184.21256444449065,N
.org.neuroph.nnet.comp.InputOutputNeuron,3,6,6,2,1,2,0,0,0,0,2,0.0,0.0,0.0,61910.536783114185,457.1467045032436,133.10447136802767,184.21256444449065,N
.org.neuroph.nnet.comp.ThresholdNeuron,2,4,4,1,1,2,0,0,0,0,2,0.0,0.0,0.0,61910.536783114185,457.1467045032436,133.10447136802767,184.21256444449065,N
.org.neuroph.nnet.learning.BinaryHebbianLearning,1,3,2,0,0,2,0,0,0,0,2,0.003105590062111801,0.0,0.23291925465838512,204945.77887307454,19.360849816718645,36.76606129759348,191.7695109838275,N
.org.neuroph.nnet.learning.HopfieldLearning,1,3,3,0,0,2,0,0,0,0,2,0.16666666666666666,0.0,0.5,176930.2297907134,11.567121447374506,34.2502010747471,190.68557865578717,N
.org.neuroph.nnet.learning.InstarLearning,1,3,2,0,0,2,0,0,0,0,2,0.003105590062111801,0.0,0.23291925465838512,204945.77887307454,19.360849816718645,36.76606129759348,191.7695109838275,N
.org.neuroph.nnet.learning.KohonenLearning,7,11,7,2,5,5,0,0,0,0,6,0.0031847133757961785,16.666666666666668,0.23885350318471338,176930.2297907134,6.994939578905448,34.2502010747471,190.68557865578717,N
.org.neuroph.nnet.learning.OutstarLearning,1,3,2,0,0,2,0,0,0,0,2,0.003105590062111801,0.0,0.23291925465838512,204945.77887307454,19.360849816718645,36.76606129759348,191.7695109838275,N
.org.neuroph.nnet.learning.StepDeltaRule,2,5,4,1,1,3,0,0,0,0,4,0.0,0.0,0.0,181627.16935854885,457.1467045032436,87.27036644872982,188.41142978257628,N
.org.neuroph.nnet.Adaline,1,2,1,0,0,0,1,0,0,1,0,0.0,0.0,0.0,117774.84702335864,457.1467045032436,5.888061469996115,191.00154993961073,N
.org.neuroph.nnet.BAM,1,2,1,0,0,1,1,0,0,1,1,1.0,22.999999999999986,1.0,117774.84702335864,189.02288633805944,5.888061469996115,191.00154993961073,N
.org.neuroph.nnet.CompetitiveNetwork,1,2,1,0,0,0,1,0,0,1,0,0.0,0.0,0.0,117774.84702335864,457.1467045032436,5.888061469996115,191.00154993961073,N
.org.neuroph.nnet.Hopfield,1,3,2,0,0,1,1,0,0,1,2,1.0,22.999999999999986,1.0,117774.84702335864,189.02288633805944,5.888061469996115,191.00154993961073,N
.org.neuroph.nnet.Instar,1,2,1,0,0,0,1,0,0,1,0,0.0,0.0,0.0,117774.84702335864,457.1467045032436,5.888061469996115,191.00154993961073,N
.org.neuroph.nnet.Kohonen,1,2,1,0,0,0,3,1,0,2,0,0.0,0.0,0.0,94593.81354601982,457.1467045032436,5.689194069469254,174.23640365098552,N
.org.neuroph.nnet.MaxNet,1,2,1,0,0,0,1,0,0,1,0,0.0,0.0,0.0,117774.84702335864,457.1467045032436,5.888061469996115,191.00154993961073,N
.org.neuroph.nnet.ModularNetwork,1,4,4,0,1,2,0,0,1,0,4,0.0035971223021582736,0.0,0.2733812949640288,256009.5223307995,14.848980287024453,473.9883994303566,198.5036252014172,N
.org.neuroph.nnet.MultiLayerPerceptron,1,6,5,0,0,3,1,0,0,1,8,1.0,22.999999999999986,1.0,117774.84702335864,189.02288633805944,5.888061469996115,191.00154993961073,N
.org.neuroph.nnet.NeuroFuzzyReasoner,1,4,2,0,0,1,0,0,0,0,3,0.0,0.0,0.0,122047.53350705198,457.1467045032436,10.010749721035463,193.66361361949836,N
.org.neuroph.nnet.Outstar,1,2,1,0,0,0,1,0,0,1,0,0.0,0.0,0.0,117774.84702335864,457.1467045032436,5.888061469996115,191.00154993961073,N
.org.neuroph.nnet.Perceptron,1,3,2,0,0,1,1,0,0,1,2,0.0,0.0,0.0,117774.84702335864,457.1467045032436,5.888061469996115,191.00154993961073,N
.org.neuroph.nnet.RbfNetwork,1,2,1,0,0,0,1,0,0,1,0,0.0,0.0,0.0,117774.84702335864,457.1467045032436,5.888061469996115,191.00154993961073,N
.org.neuroph.nnet.SupervisedHebbianNetwork,1,3,2,0,0,1,1,0,0,1,2,0.0,0.0,0.0,117774.84702335864,457.1467045032436,5.888061469996115,191.00154993961073,N
.org.neuroph.nnet.UnsupervisedHebbianNetwork,1,3,2,0,0,1,1,0,0,1,2,0.0,0.0,0.0,117774.84702335864,457.1467045032436,5.888061469996115,191.00154993961073,N
.org.neuroph.samples.HopfieldSample,0,1,1,0,0,1,0,0,0,0,1,0.0,0.0,0.0,256009.5223307995,457.1467045032436,473.9883994303566,198.5036252014172,N
.org.neuroph.samples.PerceptronSample,0,2,2,0,0,3,0,0,0,0,3,0.0036363636363636364,0.0,0.27636363636363637,256009.5223307995,6.595908294400144,473.9883994303566,198.5036252014172,N
.org.neuroph.samples.XorMultiLayerPerceptronSample,0,2,2,0,0,3,0,0,0,0,3,0.0036363636363636364,0.0,0.27636363636363637,256009.5223307995,6.595908294400144,473.9883994303566,198.5036252014172,N
.org.neuroph.util.plugins.LabelsPlugin,4,3,3,1,1,2,0,0,1,0,4,0.0,0.0,0.0,146717.0760679587,457.1467045032436,72.23838352671355,185.8069199832475,N
.org.neuroph.util.plugins.PluginBase,3,4,4,1,2,2,1,1,2,2,4,0.003676470588235294,140.0,0.2757352941176471,122047.53350705198,13.916029019353575,10.010749721035463,193.66361361949836,N
.org.neuroph.util.ConnectionFactory,0,11,11,0,0,4,0,0,0,0,22,0.0035211267605633804,0.0,0.2676056338028169,256009.5223307995,13.152051542661825,473.9883994303566,198.5036252014172,N
.org.neuroph.util.FileUtils,0,2,2,0,0,4,0,0,0,0,4,0.0,0.0,0.0,256009.5223307995,457.1467045032436,473.9883994303566,198.5036252014172,N
.org.neuroph.util.LayerFactory,0,3,3,0,0,4,0,0,0,0,6,0.0031847133757961785,0.0,0.24203821656050956,256009.5223307995,38.795827416593255,473.9883994303566,198.5036252014172,N
.org.neuroph.util.NeuralNetworkFactory,0,14,14,1,0,16,0,0,0,0,19,0.003787878787878788,0.0,0.28787878787878785,256009.5223307995,2.3345003349833466,473.9883994303566,198.5036252014172,N
.org.neuroph.util.NeuralNetworkType,16,2,1,0,1,1,2,1,1,3,2,0.0,0.0,0.0,0.0,0.0,0.0,0.0,N
.org.neuroph.util.NeuronFactory,0,4,1,0,0,8,0,0,0,0,8,0.003424657534246575,0.0,0.2602739726027397,256009.5223307995,16.138445946788774,473.9883994303566,198.5036252014172,N
.org.neuroph.util.NeuronProperties,1,11,11,5,3,7,7,0,0,9,17,0.0,0.0,0.0,29449.18718561809,457.1467045032436,52.55567445404642,112.55805834337521,N
.org.neuroph.util.SummingFunctionType,9,2,1,0,1,1,2,0,1,3,2,0.0,0.0,0.0,0.0,0.0,0.0,0.0,N
.org.neuroph.util.TrainingSetImport,0,1,1,0,0,5,0,0,0,0,3,0.16666666666666666,0.0,0.5,256009.5223307995,11.567121447374506,473.9883994303566,198.5036252014172,N
.org.neuroph.util.TransferFunctionType,9,2,1,0,1,1,10,1,1,21,2,0.0,0.0,0.0,0.0,0.0,0.0,0.0,N
.org.neuroph.util.VectorParser,0,4,4,0,0,3,0,0,0,0,6,0.0,0.0,0.0,256009.5223307995,457.1467045032436,473.9883994303566,198.5036252014172,N
.org.neuroph.util.WeightsFunctionType,3,2,1,0,1,1,2,0,1,3,2,0.0,0.0,0.0,0.0,0.0,0.0,0.0,N
