Classname                                	NrF	NrM	ToC	ToR	Win	Wout	PR 
org.jhotdraw.framework.Figure            	     1 	    42 	   131 	   131 224600 	 117400 	 0.051004 
org.jhotdraw.framework.DrawingView       	     0 	    48 	   111 	   111 193900 	 105200 	 0.042048 
org.jhotdraw.framework.FigureEnumeration 	     0 	     3 	    63 	    63 90300 	 45600 	 0.019690 
org.jhotdraw.framework.DrawingEditor     	     0 	     9 	    70 	    70 90900 	 48300 	 0.018088 
org.jhotdraw.util.Undoable               	     0 	    11 	    51 	    51 75700 	 39200 	 0.015633 
org.jhotdraw.application.DrawApplication 	    22 	    93 	    57 	    57 52300 	 86600 	 0.015386 
org.jhotdraw.util.StorableInput          	     2 	    11 	    42 	    42 55400 	 30100 	 0.015351 
org.jhotdraw.framework.Drawing           	     0 	    37 	    61 	    61 69100 	 38000 	 0.015178 
org.jhotdraw.util.StorableOutput         	     3 	    16 	    40 	    40 53700 	 28500 	 0.014902 
org.jhotdraw.util.CollectionsFactory     	     3 	    13 	    47 	    47 52600 	 26600 	 0.014541 
org.jhotdraw.standard.StandardDrawingView 	    25 	    87 	    34 	    34 33500 	 57400 	 0.012329 
org.jhotdraw.framework.ConnectionFigure  	     0 	    20 	    19 	    19 52600 	 29300 	 0.010618 
org.jhotdraw.standard.AbstractCommand    	     5 	    24 	    27 	    27 39900 	 33600 	 0.009145 
org.jhotdraw.applet.DrawApplet           	    17 	    45 	    37 	    37 20600 	 37600 	 0.008121 
org.jhotdraw.standard.CompositeFigure    	     6 	    48 	    20 	    20 23500 	 32600 	 0.007955 
org.jhotdraw.util.Command                	     0 	     8 	    16 	    16 28200 	 15900 	 0.007943 
org.jhotdraw.standard.AbstractTool       	     8 	    36 	    25 	    25 28000 	 29600 	 0.007854 
org.jhotdraw.framework.Tool              	     0 	    17 	    23 	    23 38000 	 20800 	 0.007601 
org.jhotdraw.framework.Connector         	     0 	     7 	    25 	    25 31800 	 17400 	 0.007088 
org.jhotdraw.figures.TextFigure          	    15 	    47 	    27 	    27 22000 	 29300 	 0.006836 
org.jhotdraw.contrib.html.HTMLTextAreaFigure 	    14 	    56 	    21 	    21 14100 	 27300 	 0.006583 
org.jhotdraw.framework.Locator           	     0 	     1 	    35 	    35 24100 	 13100 	 0.006555 
org.jhotdraw.figures.PolyLineFigure      	    10 	    37 	    21 	    21 19600 	 22400 	 0.006358 
org.jhotdraw.framework.FigureChangeListener 	     0 	     5 	    19 	    19 24100 	 12500 	 0.006314 
org.jhotdraw.standard.ConnectionTool     	     9 	    27 	    20 	    20 19500 	 33300 	 0.006268 
org.jhotdraw.framework.Handle            	     1 	    14 	    20 	    20 23600 	 14500 	 0.005969 
org.jhotdraw.framework.FigureAttributeConstant 	    35 	    12 	    21 	    21 24800 	 12700 	 0.005956 
org.jhotdraw.framework.HandleEnumeration 	     0 	     4 	    27 	    27 23100 	 12000 	 0.005896 
org.jhotdraw.util.UndoableAdapter        	     4 	    16 	    35 	    35 25100 	 19600 	 0.005841 
org.jhotdraw.util.Storable               	     0 	     2 	    22 	    22 14400 	  8100 	 0.005840 
org.jhotdraw.contrib.DesktopEventService 	     4 	    18 	    12 	    12 23700 	 19800 	 0.005623 
org.jhotdraw.samples.javadraw.JavaDrawApp 	     3 	    17 	    50 	    50 20100 	 40200 	 0.005566 
org.jhotdraw.standard.DecoratorFigure    	     3 	    40 	    17 	    17 14100 	 25200 	 0.005561 
org.jhotdraw.contrib.PolygonFigure       	     4 	    35 	    18 	    18 20600 	 18400 	 0.005462 
org.jhotdraw.figures.LineConnection      	     4 	    38 	    26 	    26 19000 	 24200 	 0.005431 
org.jhotdraw.standard.AbstractFigure     	     5 	    46 	    25 	    25 14200 	 22400 	 0.005351 
org.jhotdraw.figures.TextTool            	     3 	    21 	    22 	    22 16300 	 25700 	 0.005208 
org.jhotdraw.standard.TextHolder         	     0 	     9 	    10 	    10 23200 	 12500 	 0.005093 
org.jhotdraw.standard.ToolButton         	     2 	    18 	    17 	    17 17100 	 16200 	 0.005080 
org.jhotdraw.contrib.TextAreaTool        	     3 	    16 	    13 	    13 12600 	 23400 	 0.004935 
org.jhotdraw.contrib.MDIDesktopPane      	     6 	    29 	    14 	    14 22800 	 23100 	 0.004892 
org.jhotdraw.standard.ChangeConnectionHandle 	     4 	    19 	    13 	    13 14500 	 24200 	 0.004830 
org.jhotdraw.contrib.html.ETSLADisposalStrategy 	     4 	    11 	     6 	     6  6500 	  9700 	 0.004813 
org.jhotdraw.framework.FigureChangeEvent 	     3 	     7 	    17 	    17 18700 	 10700 	 0.004796 
org.jhotdraw.util.UndoManager            	     4 	    19 	    14 	    14 20800 	 14900 	 0.004690 
org.jhotdraw.samples.pert.PertFigure     	     6 	    32 	    18 	    18 13400 	 21100 	 0.004586 
org.jhotdraw.contrib.GraphicalCompositeFigure 	     3 	    23 	    17 	    17 11200 	 20900 	 0.004564 
org.jhotdraw.contrib.html.DisposableResourceHolder 	     0 	    12 	     6 	     6 10000 	  5000 	 0.004406 
org.jhotdraw.contrib.TextAreaFigure      	    13 	    50 	    16 	    16 10900 	 19700 	 0.004390 
org.jhotdraw.standard.NullDrawingView    	     5 	    54 	    19 	    19 10300 	 18800 	 0.004308 
org.jhotdraw.standard.RelativeLocator    	     5 	    16 	    20 	    20 14900 	 11200 	 0.004280 
org.jhotdraw.contrib.dnd.DragNDropTool   	     4 	    19 	    18 	    18 10600 	 20000 	 0.004240 
org.jhotdraw.standard.ConnectionHandle   	     3 	    16 	    16 	    16 11300 	 20800 	 0.004231 
org.jhotdraw.util.UndoableCommand        	     3 	    19 	    12 	    12 11500 	 20600 	 0.004164 
org.jhotdraw.standard.AlignCommand       	     1 	     6 	     8 	     8 11100 	 20400 	 0.004140 
org.jhotdraw.figures.ConnectedTextTool   	     1 	     8 	    12 	    12 11500 	 21500 	 0.004061 
org.jhotdraw.contrib.html.ContentProducerContext 	     0 	     0 	    10 	    10  7800 	  3900 	 0.004043 
org.jhotdraw.standard.FigureTransferCommand 	     0 	     4 	    16 	    16 14900 	 13600 	 0.004041 
org.jhotdraw.contrib.dnd.JHDDragSourceListener 	     4 	    13 	    13 	    13 10500 	 20400 	 0.003945 
org.jhotdraw.standard.StandardDrawing    	     5 	    17 	    20 	    20 10300 	 16100 	 0.003936 
org.jhotdraw.contrib.dnd.JHDDropTargetListener 	     5 	    14 	    13 	    13 10500 	 20400 	 0.003932 
org.jhotdraw.util.UndoableTool           	     2 	    31 	    10 	    10 11800 	 22400 	 0.003924 
org.jhotdraw.standard.PasteCommand       	     0 	     5 	    19 	    19 10400 	 16300 	 0.003820 
org.jhotdraw.standard.CreationTool       	     4 	    17 	    22 	    22 12600 	 14700 	 0.003761 
org.jhotdraw.framework.Painter           	     0 	     1 	    10 	    10 11900 	  6400 	 0.003745 
org.jhotdraw.standard.FigureEnumerator   	     3 	     6 	    25 	    25 14300 	  9700 	 0.003732 
org.jhotdraw.standard.ResizeHandle       	     0 	     4 	    16 	    16 10900 	 12200 	 0.003663 
org.jhotdraw.contrib.html.DisposableResourceManager 	     0 	     6 	     5 	     5  6900 	  3900 	 0.003648 
org.jhotdraw.standard.CutCommand         	     0 	     4 	    10 	    10  9500 	 18100 	 0.003597 
org.jhotdraw.figures.AttributeFigure     	     4 	    19 	    15 	    15 11000 	 11800 	 0.003597 
org.jhotdraw.contrib.zoom.ZoomDrawingView 	     2 	    40 	    15 	    15 11200 	 13100 	 0.003435 
org.jhotdraw.contrib.html.DisposableResourceManagerFactory 	     4 	     6 	     8 	     8  4200 	  7800 	 0.003401 
org.jhotdraw.util.UndoableHandle         	     2 	    20 	    10 	    10  8700 	 16500 	 0.003393 
org.jhotdraw.contrib.Desktop             	     3 	     8 	    13 	    13 13300 	  8000 	 0.003388 
org.jhotdraw.standard.ChangeAttributeCommand 	     2 	     4 	    10 	    10  8400 	 15000 	 0.003206 
org.jhotdraw.figures.FigureAttributes    	     3 	     9 	     7 	     7  7500 	  9600 	 0.003148 
org.jhotdraw.figures.RoundRectangleFigure 	     6 	    14 	    15 	    15 10600 	 10700 	 0.003135 
org.jhotdraw.standard.OffsetLocator      	     5 	     7 	     7 	     7  9300 	  9900 	 0.003091 
org.jhotdraw.standard.DeleteCommand      	     0 	     4 	    14 	    14  9900 	 14100 	 0.003090 
org.jhotdraw.contrib.html.ResourceDisposabilityStrategy 	     0 	     4 	     4 	     4  6000 	  3900 	 0.003070 
org.jhotdraw.contrib.Layouter            	     0 	     5 	     6 	     6  9500 	  5800 	 0.003012 
org.jhotdraw.figures.BorderTool          	     0 	     5 	    14 	    14  8000 	 14500 	 0.002995 
org.jhotdraw.util.Geom                   	     4 	    23 	    21 	    21 11200 	  5600 	 0.002989 
org.jhotdraw.util.collections.jdk11.IteratorWrapper 	     1 	     4 	     2 	     2   800 	   400 	 0.002974 
org.jhotdraw.standard.HandleEnumerator   	     3 	     7 	    23 	    23  9800 	  7600 	 0.002954 
org.jhotdraw.standard.AbstractHandle     	     3 	    14 	    14 	    14  9500 	 10600 	 0.002948 
org.jhotdraw.standard.SelectionTool      	     1 	    10 	    17 	    17  9100 	 14600 	 0.002935 
org.jhotdraw.standard.LocatorHandle      	     1 	     4 	    11 	    11  8000 	 10000 	 0.002902 
org.jhotdraw.contrib.TriangleFigure      	     2 	    15 	    10 	    10  9600 	  9300 	 0.002865 
org.jhotdraw.figures.UngroupCommand      	     0 	     4 	    11 	    11  7800 	 13800 	 0.002852 
org.jhotdraw.figures.GroupCommand        	     0 	     4 	    13 	    13  7800 	 13800 	 0.002851 
org.jhotdraw.contrib.html.ContentProducerRegistry 	     4 	    19 	     6 	     6  6600 	  9000 	 0.002836 
org.jhotdraw.standard.AbstractConnector  	     3 	    12 	    10 	    10  7000 	  9200 	 0.002831 
org.jhotdraw.standard.SendToBackCommand  	     0 	     4 	    10 	    10  7700 	 13300 	 0.002815 
org.jhotdraw.figures.ImageFigure         	     5 	    13 	    12 	    12  7300 	 10400 	 0.002786 
org.jhotdraw.util.collections.jdk11.CollectionsFactoryJDK11 	     0 	     8 	     4 	     4  1000 	  2000 	 0.002710 
org.jhotdraw.standard.AbstractLocator    	     1 	     4 	    10 	    10  6400 	  5600 	 0.002709 
org.jhotdraw.standard.StandardFigureSelection 	     2 	     4 	    11 	    11  6100 	  9500 	 0.002702 
org.jhotdraw.util.CommandMenu            	     1 	    13 	     7 	     7 10400 	  8200 	 0.002680 
org.jhotdraw.contrib.SimpleLayouter      	     3 	    11 	     9 	     9  6000 	  9900 	 0.002674 
org.jhotdraw.standard.DragTracker        	     4 	    14 	     9 	     9  7000 	 12500 	 0.002673 
org.jhotdraw.standard.DeleteFromDrawingVisitor 	     2 	     7 	    12 	    12  7800 	  9900 	 0.002673 
org.jhotdraw.contrib.html.GeometricFigure 	     0 	     1 	     7 	     7  5400 	  3300 	 0.002662 
org.jhotdraw.util.GraphLayout            	     9 	     8 	     7 	     7  6100 	 12200 	 0.002647 
org.jhotdraw.contrib.Layoutable          	     0 	     3 	     6 	     6  8000 	  5500 	 0.002644 
org.jhotdraw.figures.RectangleFigure     	     3 	    10 	    15 	    15  8000 	  8200 	 0.002644 
org.jhotdraw.contrib.CTXWindowMenu       	     7 	     3 	     5 	     5  9000 	 18000 	 0.002639 
org.jhotdraw.figures.PolyLineHandle      	     1 	     6 	    11 	    11  8300 	 12100 	 0.002620 
org.jhotdraw.contrib.PolygonHandle       	     2 	     7 	     9 	     9  7300 	 13700 	 0.002614 
org.jhotdraw.standard.ChopBoxConnector   	     1 	     5 	    10 	    10  6800 	  8200 	 0.002601 
org.jhotdraw.standard.SingleFigureEnumerator 	     2 	     4 	    17 	    17 10200 	  7200 	 0.002572 
org.jhotdraw.standard.ChangeConnectionEndHandle 	     0 	     8 	     8 	     8  7200 	 12600 	 0.002554 
org.jhotdraw.standard.ChangeConnectionStartHandle 	     0 	     8 	     8 	     8  7200 	 12600 	 0.002554 
org.jhotdraw.framework.PointConstrainer  	     0 	     3 	     6 	     6  7600 	  3800 	 0.002506 
org.jhotdraw.samples.net.NodeFigure      	     3 	    14 	    15 	    15  6300 	 11700 	 0.002487 
org.jhotdraw.contrib.PolygonTool         	     4 	    11 	    13 	    13  7500 	 12300 	 0.002452 
org.jhotdraw.figures.EllipseFigure       	     3 	    12 	    14 	    14  6500 	  8200 	 0.002446 
org.jhotdraw.contrib.html.FigureDataContentProducer 	     0 	     4 	     8 	     8  4200 	  4800 	 0.002421 
org.jhotdraw.samples.javadraw.URLTool    	     2 	    10 	     9 	     9  5800 	 10400 	 0.002404 
org.jhotdraw.contrib.html.ContentProducer 	    10 	     1 	     5 	     5  6100 	  4100 	 0.002389 
org.jhotdraw.contrib.zoom.ScalingGraphics 	     4 	    42 	     2 	     2  2200 	  1400 	 0.002377 
org.jhotdraw.samples.javadraw.JavaDrawViewer 	     4 	    15 	    10 	    10  6200 	 12400 	 0.002372 
org.jhotdraw.contrib.DesktopListener     	     0 	     3 	     8 	     8  9300 	  5100 	 0.002358 
org.jhotdraw.contrib.html.StandardDisposableResourceManager 	     2 	     9 	     4 	     4  2800 	  5000 	 0.002315 
org.jhotdraw.figures.GroupFigure         	     2 	     8 	    13 	    13  5800 	  9500 	 0.002311 
org.jhotdraw.util.ColorMap               	     1 	     8 	     6 	     6  3800 	  3100 	 0.002308 
org.jhotdraw.contrib.html.TextHolderContentProducer 	     1 	     7 	     8 	     8  4400 	  7900 	 0.002305 
org.jhotdraw.contrib.TriangleRotationHandle 	     1 	     8 	     9 	     9  6100 	 11300 	 0.002283 
org.jhotdraw.contrib.PolygonScaleHandle  	     1 	     8 	     9 	     9  6300 	 11700 	 0.002282 
org.jhotdraw.util.Iconkit                	     6 	    11 	     7 	     7  8300 	  4900 	 0.002245 
org.jhotdraw.figures.ElbowConnection     	     2 	     6 	    17 	    17  6700 	  9800 	 0.002222 
org.jhotdraw.standard.BringToFrontCommand 	     0 	     4 	     9 	     9  5700 	 10500 	 0.002213 
org.jhotdraw.util.collections.jdk11.ListWrapper 	     1 	    26 	     2 	     2   600 	   600 	 0.002203 
org.jhotdraw.util.collections.jdk11.SetWrapper 	     1 	    15 	     2 	     2   600 	   600 	 0.002203 
org.jhotdraw.util.StorageFormatManager   	     2 	     9 	     3 	     3  7100 	  7000 	 0.002200 
org.jhotdraw.util.StandardVersionControlStrategy 	     1 	     6 	     6 	     6  2900 	  4600 	 0.002192 
org.jhotdraw.contrib.CTXCommandMenu      	     0 	    15 	     8 	     8  4800 	  8400 	 0.002188 
org.jhotdraw.framework.Cursor            	     0 	     0 	    10 	    10  6400 	  3200 	 0.002175 
org.jhotdraw.figures.RadiusHandle        	     1 	     7 	     9 	     9  5800 	 10700 	 0.002174 
org.jhotdraw.standard.SelectAllCommand   	     0 	     4 	     8 	     8  5500 	 10100 	 0.002163 
org.jhotdraw.samples.javadraw.JavaDrawApplet 	     2 	     8 	    25 	    25  6700 	 13400 	 0.002161 
org.jhotdraw.standard.InsertIntoDrawingVisitor 	     2 	     7 	     9 	     9  5000 	  8500 	 0.002158 
org.jhotdraw.framework.DrawingChangeEvent 	     1 	     3 	     7 	     7  6500 	  4600 	 0.002157 
org.jhotdraw.util.CommandListener        	     0 	     3 	     5 	     5  7000 	  3500 	 0.002147 
org.jhotdraw.framework.ViewChangeListener 	     0 	     3 	     7 	     7  8100 	  4500 	 0.002141 
org.jhotdraw.figures.InsertImageCommand  	     1 	     3 	     9 	     9  5800 	 10700 	 0.002130 
org.jhotdraw.contrib.SplitConnectionTool 	     0 	     7 	    13 	    13  5800 	 10700 	 0.002122 
org.jhotdraw.framework.ToolListener      	     0 	     6 	     4 	     4  7400 	  3700 	 0.002108 
org.jhotdraw.figures.FontSizeHandle      	     0 	     6 	     9 	     9  5600 	 10300 	 0.002103 
org.jhotdraw.util.StorageFormat          	     0 	     5 	     4 	     4  6600 	  4200 	 0.002100 
org.jhotdraw.contrib.html.ColorContentProducer 	     1 	     7 	     5 	     5  3200 	  5200 	 0.002095 
org.jhotdraw.util.PaletteListener        	     0 	     2 	     4 	     4  4900 	  2900 	 0.002088 
org.jhotdraw.contrib.JPanelDesktop       	     2 	    16 	     6 	     6  6400 	 12200 	 0.002086 
org.jhotdraw.util.PaletteButton          	     6 	    12 	     4 	     4  4500 	  3900 	 0.002073 
org.jhotdraw.samples.pert.PertDependency 	     2 	     5 	    12 	    12  6300 	  9900 	 0.002063 
org.jhotdraw.util.UndoRedoActivity       	     1 	    15 	     3 	     3  4600 	  9200 	 0.002057 
org.jhotdraw.contrib.html.DisposalThread 	     3 	     5 	     1 	     1  3700 	  3200 	 0.002038 
org.jhotdraw.standard.LocatorConnector   	     4 	     9 	     7 	     7  4100 	  7300 	 0.002022 
org.jhotdraw.figures.ScribbleTool        	     4 	    10 	    11 	    11  5600 	  9700 	 0.002009 
org.jhotdraw.standard.NullHandle         	     1 	     2 	    10 	    10  5900 	  5200 	 0.001971 
org.jhotdraw.framework.FigureVisitor     	     0 	     3 	     7 	     7  5900 	  4300 	 0.001954 
org.jhotdraw.framework.DrawingChangeListener 	     0 	     3 	     5 	     5  5500 	  3200 	 0.001937 
org.jhotdraw.contrib.MiniMapView         	     5 	    15 	     6 	     6  4200 	  6300 	 0.001932 
org.jhotdraw.contrib.SplitPaneDesktop    	     1 	    18 	     7 	     7  4900 	  8000 	 0.001924 
org.jhotdraw.contrib.html.AttributeFigureContentProducer 	     0 	     4 	     6 	     6  2600 	  4000 	 0.001905 
org.jhotdraw.util.FloatingTextField      	     2 	     9 	     2 	     2  7800 	  3900 	 0.001904 
org.jhotdraw.samples.javadraw.Animator   	     4 	     4 	     4 	     4  5800 	  6200 	 0.001902 
org.jhotdraw.contrib.html.URLContentProducer 	     1 	     7 	     5 	     5  3000 	  5100 	 0.001865 
org.jhotdraw.contrib.dnd.DNDHelper       	     9 	    24 	     6 	     6  6300 	  5400 	 0.001861 
org.jhotdraw.samples.javadraw.AnimationDecorator 	     4 	    10 	     6 	     6  4200 	  5700 	 0.001842 
org.jhotdraw.standard.BoxHandleKit       	     0 	    11 	    17 	    17  5200 	  6200 	 0.001842 
org.jhotdraw.contrib.WindowMenu          	     3 	     4 	     7 	     7  5800 	 10700 	 0.001838 
org.jhotdraw.contrib.html.AbstractContentProducer 	     1 	     3 	     6 	     6  3600 	  3600 	 0.001829 
org.jhotdraw.contrib.CommandMenuItem     	     1 	     6 	     5 	     5  5200 	  5300 	 0.001822 
org.jhotdraw.contrib.html.FigureContentProducerContext 	     0 	     2 	     3 	     3  1600 	  1400 	 0.001815 
org.jhotdraw.framework.FigureSelectionListener 	     0 	     1 	     6 	     6  5700 	  3300 	 0.001809 
org.jhotdraw.standard.DuplicateCommand   	     0 	     4 	     9 	     9  4500 	  7200 	 0.001807 
org.jhotdraw.util.StandardStorageFormat  	     3 	    17 	     6 	     6  3900 	  5700 	 0.001802 
org.jhotdraw.figures.AbstractLineDecoration 	     4 	    10 	     6 	     6  3300 	  5400 	 0.001782 
org.jhotdraw.contrib.zoom.DoubleBufferImage 	     2 	     9 	     1 	     1   900 	  1200 	 0.001777 
org.jhotdraw.contrib.zoom.ZoomUpdateStrategy 	     3 	     2 	     3 	     3  1900 	  3800 	 0.001738 
org.jhotdraw.contrib.StandardLayouter    	     0 	     5 	     6 	     6  3600 	  6300 	 0.001723 
org.jhotdraw.figures.LineDecoration      	     0 	     2 	     3 	     3  4400 	  2800 	 0.001720 
org.jhotdraw.contrib.dnd.DNDFigures      	     2 	     3 	     7 	     7  4900 	  5300 	 0.001718 
org.jhotdraw.util.VersionRequester       	     0 	     1 	     3 	     3  4000 	  2000 	 0.001718 
org.jhotdraw.contrib.html.AttributeContentProducerContext 	     0 	     1 	     3 	     3  1600 	  1400 	 0.001674 
org.jhotdraw.contrib.DesktopEvent        	     2 	     6 	     5 	     5  4400 	  4300 	 0.001668 
org.jhotdraw.samples.javadraw.BouncingDrawing 	     2 	     5 	     8 	     8  3900 	  6600 	 0.001647 
org.jhotdraw.standard.ReverseFigureEnumerator 	     2 	     4 	     6 	     6  2300 	  2800 	 0.001642 
org.jhotdraw.contrib.MDI_DrawApplication 	     0 	    12 	    10 	    10  4500 	  7800 	 0.001614 
org.jhotdraw.framework.JHotDrawRuntimeException 	     1 	     4 	    10 	    10  4000 	  2000 	 0.001614 
org.jhotdraw.contrib.CompositeFigureCreationTool 	     1 	     6 	     7 	     7  4300 	  8000 	 0.001600 
org.jhotdraw.figures.ShortestDistanceConnector 	     1 	     5 	     6 	     6  3300 	  6000 	 0.001600 
org.jhotdraw.contrib.CustomSelectionTool 	     0 	    10 	     8 	     8  3300 	  6600 	 0.001597 
org.jhotdraw.contrib.JScrollPaneDesktop  	     1 	    14 	     4 	     4  3900 	  7800 	 0.001596 
org.jhotdraw.figures.ElbowHandle         	     3 	     9 	     7 	     7  4300 	  7700 	 0.001566 
org.jhotdraw.contrib.ClippingUpdateStrategy 	     0 	     2 	     7 	     7  3300 	  5700 	 0.001549 
org.jhotdraw.standard.SelectAreaTracker  	     2 	     9 	     8 	     8  3600 	  6000 	 0.001538 
org.jhotdraw.contrib.html.ResourceContentProducer 	     1 	     7 	     4 	     4  2000 	  4000 	 0.001530 
org.jhotdraw.util.RedoCommand            	     0 	     3 	     6 	     6  3700 	  6500 	 0.001496 
org.jhotdraw.util.UndoCommand            	     0 	     3 	     6 	     6  3700 	  6500 	 0.001496 
org.jhotdraw.util.ColorEntry             	     2 	     1 	     1 	     1  1600 	   800 	 0.001490 
org.jhotdraw.contrib.html.HTMLContentProducer 	     1 	     4 	     4 	     4  1900 	  2900 	 0.001486 
org.jhotdraw.contrib.html.HTMLContentProducerContext 	     0 	     0 	     3 	     3  2200 	  1700 	 0.001484 
org.jhotdraw.figures.ArrowTip            	     5 	    13 	     6 	     6  3400 	  4100 	 0.001482 
org.jhotdraw.figures.NullFigure          	     1 	    18 	     9 	     9  3100 	  5600 	 0.001472 
org.jhotdraw.standard.QuadTree           	     8 	    13 	     4 	     4  3700 	  3500 	 0.001462 
org.jhotdraw.contrib.CommandCheckBoxMenuItem 	     1 	     6 	     3 	     3  2800 	  3800 	 0.001450 
org.jhotdraw.contrib.zoom.ZoomTool       	     1 	     4 	     7 	     7  3700 	  6800 	 0.001448 
org.jhotdraw.contrib.CommandHolder       	     0 	     2 	     4 	     4  3200 	  2500 	 0.001447 
org.jhotdraw.util.Animatable             	     0 	     1 	     5 	     5  4200 	  2100 	 0.001439 
org.jhotdraw.util.PaletteIcon            	     4 	     6 	     1 	     1  3600 	  1800 	 0.001438 
org.jhotdraw.framework.FigureSelection   	     0 	     2 	     6 	     6  4200 	  2100 	 0.001429 
org.jhotdraw.contrib.NestedCreationTool  	     1 	     7 	     5 	     5  3500 	  7000 	 0.001411 
org.jhotdraw.util.CommandChoice          	     1 	     3 	     3 	     3  2700 	  3900 	 0.001403 
org.jhotdraw.standard.HandleAndEnumerator 	     2 	     5 	     2 	     2  2200 	  4400 	 0.001376 
org.jhotdraw.standard.FastBufferedUpdateStrategy 	     5 	     3 	     4 	     4  2400 	  4800 	 0.001359 
org.jhotdraw.standard.AWTCursor          	     0 	     2 	     7 	     7  3400 	  2300 	 0.001345 
org.jhotdraw.contrib.DiamondFigure       	     0 	     8 	     7 	     7  3100 	  3200 	 0.001339 
org.jhotdraw.standard.HandleTracker      	     1 	     5 	     6 	     6  3000 	  4800 	 0.001325 
org.jhotdraw.samples.minimap.MiniMapDesktop 	     1 	     3 	     6 	     6  2700 	  4800 	 0.001321 
org.jhotdraw.standard.FigureChangeEventMulticaster 	     0 	    11 	     3 	     3  2300 	  3700 	 0.001310 
org.jhotdraw.samples.nothing.NothingApp  	     0 	     3 	    14 	    14  3800 	  7600 	 0.001303 
org.jhotdraw.contrib.html.HTMLLayouter   	     0 	     9 	     4 	     4  1900 	  3800 	 0.001302 
org.jhotdraw.util.GraphNode              	     5 	     2 	     2 	     2  3500 	  3100 	 0.001290 
org.jhotdraw.samples.nothing.NothingApplet 	     0 	     2 	    14 	    14  3500 	  7000 	 0.001271 
org.jhotdraw.standard.ActionTool         	     0 	     4 	     6 	     6  2800 	  4400 	 0.001251 
org.jhotdraw.standard.EastHandle         	     0 	     2 	     6 	     6  2300 	  4000 	 0.001220 
org.jhotdraw.standard.NorthEastHandle    	     0 	     2 	     6 	     6  2300 	  4000 	 0.001220 
org.jhotdraw.standard.NorthHandle        	     0 	     2 	     6 	     6  2300 	  4000 	 0.001220 
org.jhotdraw.standard.NorthWestHandle    	     0 	     2 	     6 	     6  2300 	  4000 	 0.001220 
org.jhotdraw.standard.SouthEastHandle    	     0 	     2 	     6 	     6  2300 	  4000 	 0.001220 
org.jhotdraw.standard.SouthHandle        	     0 	     2 	     6 	     6  2300 	  4000 	 0.001220 
org.jhotdraw.standard.SouthWestHandle    	     0 	     2 	     6 	     6  2300 	  4000 	 0.001220 
org.jhotdraw.standard.WestHandle         	     0 	     2 	     6 	     6  2300 	  4000 	 0.001220 
org.jhotdraw.standard.BufferedUpdateStrategy 	     5 	     2 	     4 	     4  2600 	  3400 	 0.001217 
org.jhotdraw.standard.ToggleGridCommand  	     1 	     2 	     6 	     6  2300 	  3700 	 0.001216 
org.jhotdraw.standard.FigureAndEnumerator 	     2 	     4 	     2 	     2  2000 	  4000 	 0.001213 
org.jhotdraw.util.VersionControlStrategy 	     0 	     1 	     3 	     3  3200 	  1600 	 0.001204 
org.jhotdraw.figures.BorderDecorator     	     5 	     9 	     4 	     4  2400 	  3900 	 0.001185 
org.jhotdraw.figures.PolyLineConnector   	     1 	     3 	     4 	     4  2400 	  4200 	 0.001183 
org.jhotdraw.standard.SimpleUpdateStrategy 	     1 	     2 	     5 	     5  2600 	  2800 	 0.001155 
org.jhotdraw.figures.NumberTextFigure    	     2 	     5 	     3 	     3  3300 	  2700 	 0.001148 
org.jhotdraw.standard.OrderedFigureElement 	     2 	     4 	     2 	     2  2400 	  2700 	 0.001138 
org.jhotdraw.contrib.ChopDiamondConnector 	     1 	     3 	     4 	     4  1800 	  3000 	 0.001131 
org.jhotdraw.figures.LineFigure          	     2 	     7 	     7 	     7  4000 	  2600 	 0.001127 
org.jhotdraw.contrib.ComponentFigure     	     2 	     9 	     6 	     6  2200 	  3500 	 0.001126 
org.jhotdraw.samples.javadraw.FollowURLTool 	     1 	     3 	     6 	     6  2300 	  3700 	 0.001125 
org.jhotdraw.util.CommandButton          	     1 	     2 	     2 	     2  1700 	  2800 	 0.001103 
org.jhotdraw.contrib.Helper              	     2 	     4 	     4 	     4  2600 	  2200 	 0.001101 
org.jhotdraw.contrib.html.HTMLColorContentProducer 	     0 	     3 	     3 	     3  1400 	  1900 	 0.001090 
org.jhotdraw.contrib.zoom.AreaTracker    	     1 	     8 	     4 	     4  2100 	  3000 	 0.001087 
org.jhotdraw.contrib.MDIDesktopManager   	     1 	     7 	     1 	     1  3300 	  3900 	 0.001072 
org.jhotdraw.contrib.dnd.DNDInterface    	     0 	     3 	     2 	     2  3200 	  1600 	 0.001056 
org.jhotdraw.figures.GroupHandle         	     0 	     2 	     4 	     4  1800 	  2700 	 0.001049 
org.jhotdraw.figures.ChopEllipseConnector 	     1 	     3 	     4 	     4  1700 	  2800 	 0.001045 
org.jhotdraw.samples.javadraw.MySelectionTool 	     0 	     3 	     6 	     6  2100 	  3600 	 0.001038 
org.jhotdraw.contrib.zoom.ZoomCommand    	     1 	     6 	     4 	     4  1800 	  3600 	 0.001013 
org.jhotdraw.contrib.html.HTMLTextAreaTool 	     0 	     2 	     5 	     5  2000 	  3400 	 0.001010 
org.jhotdraw.figures.PolyLineLocator     	     1 	     2 	     3 	     3  1700 	  2800 	 0.001007 
org.jhotdraw.standard.CopyCommand        	     0 	     3 	     5 	     5  2000 	  3100 	 0.001003 
org.jhotdraw.samples.pert.PertApplet     	     1 	     2 	    10 	    10  2300 	  4600 	 0.000998 
org.jhotdraw.samples.pert.PertFigureCreationTool 	     0 	     2 	     6 	     6  2100 	  3000 	 0.000987 
org.jhotdraw.samples.pert.PertApplication 	     1 	     3 	    10 	    10  2300 	  4600 	 0.000985 
org.jhotdraw.contrib.SplitPaneDrawApplication 	     0 	     3 	     4 	     4  1700 	  2200 	 0.000984 
org.jhotdraw.util.SerializationStorageFormat 	     0 	     5 	     3 	     3  1900 	  2900 	 0.000982 
org.jhotdraw.standard.PeripheralLocator  	     4 	     4 	     2 	     2  1300 	  2600 	 0.000975 
org.jhotdraw.contrib.dnd.DNDFiguresTransferable 	     3 	     6 	     4 	     4  2400 	  1200 	 0.000959 
org.jhotdraw.standard.FigureChangeAdapter 	     0 	     6 	     3 	     3  1600 	  2000 	 0.000950 
org.jhotdraw.contrib.FloatingTextArea    	     3 	     7 	     1 	     1  2600 	  1300 	 0.000944 
org.jhotdraw.figures.ElbowTextLocator    	     0 	     2 	     3 	     3  1400 	  2200 	 0.000941 
org.jhotdraw.util.collections.jdk11.MapWrapper 	     1 	    14 	     1 	     1   400 	   200 	 0.000939 
org.jhotdraw.util.Clipboard              	     2 	     5 	     2 	     2  2000 	  1000 	 0.000930 
org.jhotdraw.contrib.html.StandardDisposableResourceHolder 	     4 	    14 	     2 	     2   800 	  1000 	 0.000926 
org.jhotdraw.contrib.zoom.ZoomAreaTracker 	     0 	     2 	     4 	     4  1700 	  2800 	 0.000912 
org.jhotdraw.contrib.PopupMenuFigureSelection 	     0 	     2 	     2 	     2  1600 	  1700 	 0.000905 
org.jhotdraw.contrib.html.DiamondFigureGeometricAdapter 	     0 	     3 	     2 	     2   800 	  1600 	 0.000895 
org.jhotdraw.contrib.ChopPolygonConnector 	     1 	     3 	     3 	     3  1400 	  2200 	 0.000885 
org.jhotdraw.samples.javadraw.PatternPainter 	     1 	     3 	     2 	     2  1000 	  2000 	 0.000881 
org.jhotdraw.standard.GridConstrainer    	     2 	     4 	     2 	     2  1000 	  1100 	 0.000870 
org.jhotdraw.samples.net.NetApp          	     0 	     3 	     8 	     8  2100 	  4200 	 0.000863 
org.jhotdraw.contrib.html.TriangleFigureGeometricAdapter 	     0 	     3 	     2 	     2   800 	  1600 	 0.000857 
org.jhotdraw.util.VersionManagement      	     3 	     9 	     3 	     3  1400 	   700 	 0.000855 
org.jhotdraw.contrib.html.EllipseFigureGeometricAdapter 	     0 	     3 	     2 	     2   800 	  1600 	 0.000854 
org.jhotdraw.contrib.html.PolygonFigureGeometricAdapter 	     0 	     4 	     2 	     2   800 	  1600 	 0.000853 
org.jhotdraw.contrib.html.RoundRectangleGeometricAdapter 	     0 	     3 	     2 	     2   800 	  1600 	 0.000852 
org.jhotdraw.figures.NullConnector       	     0 	     2 	     3 	     3  1400 	  1900 	 0.000831 
org.jhotdraw.contrib.zoom.MiniMapZoomableView 	     0 	     2 	     3 	     3  1300 	  2600 	 0.000830 
org.jhotdraw.standard.NullPainter        	     0 	     2 	     2 	     2   800 	  1600 	 0.000813 
org.jhotdraw.standard.NullTool           	     0 	     4 	     3 	     3  1400 	  1900 	 0.000786 
org.jhotdraw.samples.minimap.MiniMapApplication 	     0 	     3 	     3 	     3   900 	  1800 	 0.000785 
org.jhotdraw.contrib.html.ResourceManagerNotSetException 	     0 	     1 	     2 	     2   600 	   300 	 0.000721 
org.jhotdraw.contrib.CustomToolBar       	     4 	     6 	     1 	     1   500 	  1000 	 0.000710 
org.jhotdraw.util.Bounds                 	     4 	    48 	     1 	     1  1000 	   500 	 0.000685 
org.jhotdraw.util.ReverseListEnumerator  	     2 	     4 	     1 	     1   400 	   200 	 0.000677 
org.jhotdraw.util.collections.jdk12.CollectionsFactoryJDK12 	     0 	     8 	     1 	     1   400 	   800 	 0.000664 
org.jhotdraw.contrib.AutoscrollHelper    	     2 	     8 	     1 	     1   800 	   400 	 0.000624 
org.jhotdraw.util.Filler                 	     3 	     5 	     1 	     1   600 	   300 	 0.000588 
org.jhotdraw.util.PaletteLayout          	     3 	     8 	     1 	     1   600 	   300 	 0.000588 
org.jhotdraw.applet.DrawApplet$1         	     1 	     2 	     0 	     0     0 	     0 	 0.000478 
org.jhotdraw.applet.DrawApplet$2         	     1 	     2 	     0 	     0     0 	     0 	 0.000478 
org.jhotdraw.applet.DrawApplet$3         	     1 	     2 	     0 	     0     0 	     0 	 0.000478 
org.jhotdraw.application.DrawApplication$1 	     2 	     2 	     0 	     0     0 	     0 	 0.000478 
org.jhotdraw.application.DrawApplication$10 	     2 	     2 	     0 	     0     0 	     0 	 0.000478 
org.jhotdraw.application.DrawApplication$11 	     1 	     4 	     0 	     0     0 	     0 	 0.000478 
org.jhotdraw.application.DrawApplication$2 	     1 	     4 	     0 	     0     0 	     0 	 0.000478 
org.jhotdraw.application.DrawApplication$3 	     1 	     2 	     0 	     0     0 	     0 	 0.000478 
org.jhotdraw.application.DrawApplication$4 	     1 	     2 	     0 	     0     0 	     0 	 0.000478 
org.jhotdraw.application.DrawApplication$5 	     1 	     2 	     0 	     0     0 	     0 	 0.000478 
org.jhotdraw.application.DrawApplication$6 	     1 	     2 	     0 	     0     0 	     0 	 0.000478 
org.jhotdraw.application.DrawApplication$7 	     1 	     2 	     0 	     0     0 	     0 	 0.000478 
org.jhotdraw.application.DrawApplication$8 	     1 	     2 	     0 	     0     0 	     0 	 0.000478 
org.jhotdraw.application.DrawApplication$9 	     1 	     2 	     0 	     0     0 	     0 	 0.000478 
org.jhotdraw.contrib.CTXWindowMenu$1     	     1 	     3 	     0 	     0     0 	     0 	 0.000478 
org.jhotdraw.contrib.CTXWindowMenu$2     	     1 	     3 	     0 	     0     0 	     0 	 0.000478 
org.jhotdraw.contrib.CTXWindowMenu$3     	     1 	     3 	     0 	     0     0 	     0 	 0.000478 
org.jhotdraw.contrib.CTXWindowMenu$4     	     1 	     3 	     0 	     0     0 	     0 	 0.000478 
org.jhotdraw.contrib.CTXWindowMenu$5     	     1 	     3 	     0 	     0     0 	     0 	 0.000478 
org.jhotdraw.contrib.CTXWindowMenu$6     	     1 	     4 	     0 	     0     0 	     0 	 0.000478 
org.jhotdraw.contrib.CTXWindowMenu$7     	     1 	     2 	     0 	     0     0 	     0 	 0.000478 
org.jhotdraw.contrib.CTXWindowMenu$ChildMenuItem 	     2 	     2 	     0 	     0     0 	     0 	 0.000478 
org.jhotdraw.contrib.DesktopEventService$1 	     1 	     3 	     0 	     0     0 	     0 	 0.000478 
org.jhotdraw.contrib.MDIDesktopPane$1    	     1 	     4 	     0 	     0     0 	     0 	 0.000478 
org.jhotdraw.contrib.MiniMapView$MappedDrawingChangeListener 	     1 	     4 	     0 	     0     0 	     0 	 0.000478 
org.jhotdraw.contrib.MiniMapView$MouseListener 	     1 	     4 	     0 	     0     0 	     0 	 0.000478 
org.jhotdraw.contrib.MiniMapView$SubjectListener 	     1 	     2 	     0 	     0     0 	     0 	 0.000478 
org.jhotdraw.contrib.PolygonFigure$1     	     1 	     2 	     0 	     0     0 	     0 	 0.000478 
org.jhotdraw.contrib.PolygonHandle$UndoActivity 	     0 	     2 	     0 	     0     0 	     0 	 0.000478 
org.jhotdraw.contrib.PolygonScaleHandle$UndoActivity 	     1 	     6 	     0 	     0     0 	     0 	 0.000478 
org.jhotdraw.contrib.SplitPaneDesktop$1  	     1 	     2 	     0 	     0     0 	     0 	 0.000478 
org.jhotdraw.contrib.TextAreaTool$UndoActivity 	     2 	     9 	     0 	     0     0 	     0 	 0.000478 
org.jhotdraw.contrib.TriangleRotationHandle$UndoActivity 	     1 	     6 	     0 	     0     0 	     0 	 0.000478 
org.jhotdraw.contrib.WindowMenu$1        	     1 	     3 	     0 	     0     0 	     0 	 0.000478 
org.jhotdraw.contrib.WindowMenu$2        	     1 	     3 	     0 	     0     0 	     0 	 0.000478 
org.jhotdraw.contrib.WindowMenu$3        	     1 	     4 	     0 	     0     0 	     0 	 0.000478 
org.jhotdraw.contrib.WindowMenu$4        	     1 	     2 	     0 	     0     0 	     0 	 0.000478 
org.jhotdraw.contrib.WindowMenu$ChildMenuItem 	     2 	     2 	     0 	     0     0 	     0 	 0.000478 
org.jhotdraw.contrib.dnd.DragNDropTool$1 	     1 	     2 	     0 	     0     0 	     0 	 0.000478 
org.jhotdraw.contrib.dnd.JHDDragSourceListener$RemoveUndoActivity 	     1 	     4 	     0 	     0     0 	     0 	 0.000478 
org.jhotdraw.contrib.dnd.JHDDropTargetListener$AddUndoActivity 	     1 	     4 	     0 	     0     0 	     0 	 0.000478 
org.jhotdraw.contrib.html.HTMLTextAreaFigure$1 	     1 	     2 	     0 	     0     0 	     0 	 0.000478 
org.jhotdraw.contrib.html.HTMLTextAreaFigure$2 	     1 	     2 	     0 	     0     0 	     0 	 0.000478 
org.jhotdraw.contrib.html.HTMLTextAreaFigure$3 	     1 	     2 	     0 	     0     0 	     0 	 0.000478 
org.jhotdraw.contrib.html.HTMLTextAreaFigure$4 	     1 	     2 	     0 	     0     0 	     0 	 0.000478 
org.jhotdraw.contrib.html.HTMLTextAreaFigure$InvalidAttributeMarker 	     1 	     2 	     0 	     0     0 	     0 	 0.000478 
org.jhotdraw.contrib.zoom.ScalingGraphics$ScalingFontMetrics 	     3 	     7 	     0 	     0     0 	     0 	 0.000478 
org.jhotdraw.contrib.zoom.ZoomDrawingView$1 	     1 	     3 	     0 	     0     0 	     0 	 0.000478 
org.jhotdraw.contrib.zoom.ZoomDrawingView$2 	     1 	     3 	     0 	     0     0 	     0 	 0.000478 
org.jhotdraw.contrib.zoom.ZoomDrawingView$3 	     1 	     2 	     0 	     0     0 	     0 	 0.000478 
org.jhotdraw.figures.BorderTool$UndoActivity 	     0 	     4 	     0 	     0     0 	     0 	 0.000478 
org.jhotdraw.figures.ConnectedTextTool$DeleteUndoActivity 	     1 	     5 	     0 	     0     0 	     0 	 0.000478 
org.jhotdraw.figures.ConnectedTextTool$UndoActivity 	     1 	     5 	     0 	     0     0 	     0 	 0.000478 
org.jhotdraw.figures.FontSizeHandle$UndoActivity 	     2 	     9 	     0 	     0     0 	     0 	 0.000478 
org.jhotdraw.figures.GroupCommand$UndoActivity 	     0 	     4 	     0 	     0     0 	     0 	 0.000478 
org.jhotdraw.figures.InsertImageCommand$UndoActivity 	     3 	     6 	     0 	     0     0 	     0 	 0.000478 
org.jhotdraw.figures.PolyLineHandle$UndoActivity 	     2 	     8 	     0 	     0     0 	     0 	 0.000478 
org.jhotdraw.figures.RadiusHandle$UndoActivity 	     1 	     6 	     0 	     0     0 	     0 	 0.000478 
org.jhotdraw.figures.TextTool$UndoActivity 	     2 	     9 	     0 	     0     0 	     0 	 0.000478 
org.jhotdraw.figures.UngroupCommand$UndoActivity 	     0 	     4 	     0 	     0     0 	     0 	 0.000478 
org.jhotdraw.framework.JHotDrawException 	     1 	     4 	     0 	     0     0 	     0 	 0.000478 
org.jhotdraw.samples.javadraw.JavaDrawApp$1 	     1 	     2 	     0 	     0     0 	     0 	 0.000478 
org.jhotdraw.samples.javadraw.JavaDrawApp$2 	     1 	     2 	     0 	     0     0 	     0 	 0.000478 
org.jhotdraw.samples.javadraw.JavaDrawApp$3 	     1 	     2 	     0 	     0     0 	     0 	 0.000478 
org.jhotdraw.samples.javadraw.JavaDrawApp$4 	     1 	     2 	     0 	     0     0 	     0 	 0.000478 
org.jhotdraw.samples.javadraw.JavaDrawApp$5 	     1 	     2 	     0 	     0     0 	     0 	 0.000478 
org.jhotdraw.samples.javadraw.JavaDrawApplet$1 	     1 	     2 	     0 	     0     0 	     0 	 0.000478 
org.jhotdraw.samples.javadraw.URLTool$1  	     1 	     2 	     0 	     0     0 	     0 	 0.000478 
org.jhotdraw.standard.AbstractCommand$1  	     1 	     4 	     0 	     0     0 	     0 	 0.000478 
org.jhotdraw.standard.AbstractCommand$EventDispatcher 	     2 	     6 	     0 	     0     0 	     0 	 0.000478 
org.jhotdraw.standard.AbstractTool$1     	     1 	     4 	     0 	     0     0 	     0 	 0.000478 
org.jhotdraw.standard.AbstractTool$EventDispatcher 	     2 	     9 	     0 	     0     0 	     0 	 0.000478 
org.jhotdraw.standard.AlignCommand$1     	     0 	     2 	     0 	     0     0 	     0 	 0.000478 
org.jhotdraw.standard.AlignCommand$2     	     0 	     2 	     0 	     0     0 	     0 	 0.000478 
org.jhotdraw.standard.AlignCommand$3     	     0 	     2 	     0 	     0     0 	     0 	 0.000478 
org.jhotdraw.standard.AlignCommand$4     	     0 	     2 	     0 	     0     0 	     0 	 0.000478 
org.jhotdraw.standard.AlignCommand$5     	     0 	     2 	     0 	     0     0 	     0 	 0.000478 
org.jhotdraw.standard.AlignCommand$6     	     0 	     2 	     0 	     0     0 	     0 	 0.000478 
org.jhotdraw.standard.AlignCommand$Alignment 	     7 	     7 	     0 	     0     0 	     0 	 0.000478 
org.jhotdraw.standard.AlignCommand$UndoActivity 	     2 	     9 	     0 	     0     0 	     0 	 0.000478 
org.jhotdraw.standard.BringToFrontCommand$UndoActivity 	     0 	     2 	     0 	     0     0 	     0 	 0.000478 
org.jhotdraw.standard.ChangeAttributeCommand$UndoActivity 	     3 	    11 	     0 	     0     0 	     0 	 0.000478 
org.jhotdraw.standard.ChangeConnectionEndHandle$UndoActivity 	     0 	     2 	     0 	     0     0 	     0 	 0.000478 
org.jhotdraw.standard.ChangeConnectionHandle$UndoActivity 	     1 	     7 	     0 	     0     0 	     0 	 0.000478 
org.jhotdraw.standard.ChangeConnectionStartHandle$UndoActivity 	     0 	     2 	     0 	     0     0 	     0 	 0.000478 
org.jhotdraw.standard.ConnectionTool$UndoActivity 	     3 	     5 	     0 	     0     0 	     0 	 0.000478 
org.jhotdraw.standard.CutCommand$UndoActivity 	     2 	     8 	     0 	     0     0 	     0 	 0.000478 
org.jhotdraw.standard.DeleteCommand$UndoActivity 	     1 	     3 	     0 	     0     0 	     0 	 0.000478 
org.jhotdraw.standard.DragTracker$UndoActivity 	     2 	     8 	     0 	     0     0 	     0 	 0.000478 
org.jhotdraw.standard.PasteCommand$UndoActivity 	     0 	     3 	     0 	     0     0 	     0 	 0.000478 
org.jhotdraw.standard.ResizeHandle$UndoActivity 	     1 	     6 	     0 	     0     0 	     0 	 0.000478 
org.jhotdraw.standard.SelectAllCommand$UndoActivity 	     0 	     3 	     0 	     0     0 	     0 	 0.000478 
org.jhotdraw.standard.SendToBackCommand$UndoActivity 	     1 	     7 	     0 	     0     0 	     0 	 0.000478 
org.jhotdraw.standard.StandardDrawingView$1 	     1 	     3 	     0 	     0     0 	     0 	 0.000478 
org.jhotdraw.standard.StandardDrawingView$ASH 	     1 	     4 	     0 	     0     0 	     0 	 0.000478 
org.jhotdraw.standard.StandardDrawingView$DrawingViewKeyListener 	     2 	     6 	     0 	     0     0 	     0 	 0.000478 
org.jhotdraw.standard.StandardDrawingView$DrawingViewMouseListener 	     1 	     3 	     0 	     0     0 	     0 	 0.000478 
org.jhotdraw.standard.StandardDrawingView$DrawingViewMouseMotionListener 	     1 	     3 	     0 	     0     0 	     0 	 0.000478 
org.jhotdraw.util.StandardStorageFormat$1 	     1 	     3 	     0 	     0     0 	     0 	 0.000478 
