                                                                           
                              ANT.JAR METRICS                              
                                                                           
+------------------------+------------------------+-----------------------+
|                        |        Precision       |         Recall        |
+------------------------+------------------------+-----------------------+
|        hits_auth       |   16.666666666666664   |          62.5         |
|        hits_hub        |          20.0          |          75.0         |
|   pagerank_undirected  |   26.666666666666668   |         100.0         |
|     fuzzy_decision     |   23.333333333333332   |          87.5         |
+------------------------+------------------------+-----------------------+
