                                                                           
                         APACHEJMETER_CORE.JAR MET                         
                                    RICS                                   
+------------------------+------------------------+-----------------------+
|                        |        Precision       |         Recall        |
+------------------------+------------------------+-----------------------+
|        hits_auth       |          30.0          |   69.23076923076923   |
|        hits_hub        |   16.666666666666664   |   38.46153846153847   |
|   pagerank_undirected  |   26.666666666666668   |   61.53846153846154   |
|     fuzzy_decision     |   23.333333333333332   |   53.84615384615385   |
+------------------------+------------------------+-----------------------+
